___________Dictionary___________
foreach (int key in cart.Keys)
{s += $"{key}: {cart[key]}" + Environment.NewLine;}

foreach(var kvp in cities)
{ Console.WriteLine("Key: {0}, Value: {1}", kvp.Key, kvp.Value);}


___________to string_________
public override string ToString()
{return $"Book infor: {code} - {title} - {year.Year}";}