﻿{
  "profiles": {
    "Service.Storage": {
      "commandName": "Project",
      "dotnetRunMessages": true,
      "launchBrowser": false,
      "applicationUrl": "http://localhost:5008",
      "environmentVariables": {
        "ASPNETCORE_ENVIRONMENT": "dev"
      }
    }
  }
}
