{
  "runtimeTarget": {
    "name": ".NETCoreApp,Version=v6.0",
    "signature": ""
  },
  "compilationOptions": {},
  "targets": {
    ".NETCoreApp,Version=v6.0": {
      "Service.Display/1.0.0": {
        "dependencies": {
          "Novanet.Core": "1.0.0",
          "Novanet.EventBus": "1.0.0",
          "NovanetCore.Business": "1.0.0"
        },
        "runtime": {
          "Service.Display.dll": {}
        }
      },
      "AioCore.Mongo.Driver/1.2.4": {
        "dependencies": {
          "Humanizer.Core": "2.14.1",
          "MongoDB.Driver": "2.15.0"
        },
        "runtime": {
          "lib/net6.0/AioCore.Mongo.Driver.dll": {
            "assemblyVersion": "1.2.4.0",
            "fileVersion": "1.2.4.0"
          }
        }
      },
      "AutoMapper/11.0.0": {
        "dependencies": {
          "Microsoft.CSharp": "4.7.0"
        },
        "runtime": {
          "lib/netstandard2.1/AutoMapper.dll": {
            "assemblyVersion": "11.0.0.0",
            "fileVersion": "11.0.0.0"
          }
        }
      },
      "Dapper/2.0.123": {
        "runtime": {
          "lib/net5.0/Dapper.dll": {
            "assemblyVersion": "2.0.0.0",
            "fileVersion": "2.0.123.33578"
          }
        }
      },
      "DnsClient/1.6.0": {
        "dependencies": {
          "Microsoft.Win32.Registry": "5.0.0"
        },
        "runtime": {
          "lib/net5.0/DnsClient.dll": {
            "assemblyVersion": "1.6.0.0",
            "fileVersion": "1.6.0.0"
          }
        }
      },
      "FastMember/1.5.0": {
        "runtime": {
          "lib/netcoreapp2.0/FastMember.dll": {
            "assemblyVersion": "1.5.0.0",
            "fileVersion": "1.5.0.0"
          }
        }
      },
      "FluentValidation/10.3.6": {
        "runtime": {
          "lib/net6.0/FluentValidation.dll": {
            "assemblyVersion": "9.0.0.0",
            "fileVersion": "10.3.6.0"
          }
        }
      },
      "FluentValidation.AspNetCore/10.3.6": {
        "dependencies": {
          "FluentValidation": "10.3.6",
          "FluentValidation.DependencyInjectionExtensions": "10.3.6"
        },
        "runtime": {
          "lib/net6.0/FluentValidation.AspNetCore.dll": {
            "assemblyVersion": "9.0.0.0",
            "fileVersion": "10.3.6.0"
          }
        }
      },
      "FluentValidation.DependencyInjectionExtensions/10.3.6": {
        "dependencies": {
          "FluentValidation": "10.3.6",
          "Microsoft.Extensions.DependencyInjection.Abstractions": "6.0.0"
        },
        "runtime": {
          "lib/netstandard2.1/FluentValidation.DependencyInjectionExtensions.dll": {
            "assemblyVersion": "9.0.0.0",
            "fileVersion": "10.3.6.0"
          }
        }
      },
      "Hangfire.AspNetCore/1.8.0-beta4": {
        "dependencies": {
          "Hangfire.Core": "1.8.0-beta4"
        },
        "runtime": {
          "lib/netcoreapp3.0/Hangfire.AspNetCore.dll": {
            "assemblyVersion": "1.8.0.0",
            "fileVersion": "1.8.0.0"
          }
        }
      },
      "Hangfire.Core/1.8.0-beta4": {
        "dependencies": {
          "Newtonsoft.Json": "11.0.1"
        },
        "runtime": {
          "lib/netstandard2.0/Hangfire.Core.dll": {
            "assemblyVersion": "1.8.0.0",
            "fileVersion": "1.8.0.0"
          }
        },
        "resources": {
          "lib/netstandard2.0/ca/Hangfire.Core.resources.dll": {
            "locale": "ca"
          },
          "lib/netstandard2.0/de/Hangfire.Core.resources.dll": {
            "locale": "de"
          },
          "lib/netstandard2.0/es/Hangfire.Core.resources.dll": {
            "locale": "es"
          },
          "lib/netstandard2.0/fa/Hangfire.Core.resources.dll": {
            "locale": "fa"
          },
          "lib/netstandard2.0/fr/Hangfire.Core.resources.dll": {
            "locale": "fr"
          },
          "lib/netstandard2.0/nb/Hangfire.Core.resources.dll": {
            "locale": "nb"
          },
          "lib/netstandard2.0/nl/Hangfire.Core.resources.dll": {
            "locale": "nl"
          },
          "lib/netstandard2.0/pt-BR/Hangfire.Core.resources.dll": {
            "locale": "pt-BR"
          },
          "lib/netstandard2.0/pt-PT/Hangfire.Core.resources.dll": {
            "locale": "pt-PT"
          },
          "lib/netstandard2.0/pt/Hangfire.Core.resources.dll": {
            "locale": "pt"
          },
          "lib/netstandard2.0/tr-TR/Hangfire.Core.resources.dll": {
            "locale": "tr-TR"
          },
          "lib/netstandard2.0/zh-TW/Hangfire.Core.resources.dll": {
            "locale": "zh-TW"
          },
          "lib/netstandard2.0/zh/Hangfire.Core.resources.dll": {
            "locale": "zh"
          }
        }
      },
      "Hangfire.Dashboard.Basic.Authentication/5.0.0": {
        "dependencies": {
          "Hangfire.AspNetCore": "1.8.0-beta4",
          "Hangfire.Core": "1.8.0-beta4",
          "Microsoft.AspNetCore.Http": "2.2.2",
          "Microsoft.Extensions.Logging.Abstractions": "6.0.0",
          "Microsoft.Extensions.Primitives": "6.0.0"
        },
        "runtime": {
          "lib/net5.0/HangfireBasicAuthenticationFilter.dll": {
            "assemblyVersion": "5.0.0.0",
            "fileVersion": "5.0.0.0"
          }
        }
      },
      "Hangfire.SqlServer/1.8.0-beta4": {
        "dependencies": {
          "Hangfire.Core": "1.8.0-beta4",
          "System.Data.SqlClient": "4.4.0"
        },
        "runtime": {
          "lib/netstandard2.0/Hangfire.SqlServer.dll": {
            "assemblyVersion": "1.8.0.0",
            "fileVersion": "1.8.0.0"
          }
        }
      },
      "Humanizer.Core/2.14.1": {
        "runtime": {
          "lib/net6.0/Humanizer.dll": {
            "assemblyVersion": "2.14.0.0",
            "fileVersion": "2.14.1.48190"
          }
        }
      },
      "MailKit/3.2.0": {
        "dependencies": {
          "MimeKit": "3.2.0"
        },
        "runtime": {
          "lib/net6.0/MailKit.dll": {
            "assemblyVersion": "3.2.0.0",
            "fileVersion": "3.2.0.0"
          }
        }
      },
      "MediatR/10.0.1": {
        "dependencies": {
          "MediatR.Contracts": "1.0.1"
        },
        "runtime": {
          "lib/netstandard2.1/MediatR.dll": {
            "assemblyVersion": "10.0.0.0",
            "fileVersion": "10.0.1.0"
          }
        }
      },
      "MediatR.Contracts/1.0.1": {
        "runtime": {
          "lib/netstandard2.0/MediatR.Contracts.dll": {
            "assemblyVersion": "1.0.1.0",
            "fileVersion": "1.0.1.0"
          }
        }
      },
      "MediatR.Extensions.Microsoft.DependencyInjection/10.0.1": {
        "dependencies": {
          "MediatR": "10.0.1",
          "Microsoft.Extensions.DependencyInjection.Abstractions": "6.0.0"
        },
        "runtime": {
          "lib/netstandard2.1/MediatR.Extensions.Microsoft.DependencyInjection.dll": {
            "assemblyVersion": "10.0.0.0",
            "fileVersion": "10.0.1.0"
          }
        }
      },
      "Microsoft.AspNetCore.Authentication.JwtBearer/6.0.1": {
        "dependencies": {
          "Microsoft.IdentityModel.Protocols.OpenIdConnect": "6.10.0"
        },
        "runtime": {
          "lib/net6.0/Microsoft.AspNetCore.Authentication.JwtBearer.dll": {
            "assemblyVersion": "6.0.1.0",
            "fileVersion": "6.0.121.56714"
          }
        }
      },
      "Microsoft.AspNetCore.Http/2.2.2": {
        "dependencies": {
          "Microsoft.AspNetCore.Http.Abstractions": "2.2.0",
          "Microsoft.AspNetCore.WebUtilities": "2.2.0",
          "Microsoft.Extensions.ObjectPool": "2.2.0",
          "Microsoft.Extensions.Options": "6.0.0",
          "Microsoft.Net.Http.Headers": "2.2.0"
        }
      },
      "Microsoft.AspNetCore.Http.Abstractions/2.2.0": {
        "dependencies": {
          "Microsoft.AspNetCore.Http.Features": "2.2.0",
          "System.Text.Encodings.Web": "4.5.0"
        }
      },
      "Microsoft.AspNetCore.Http.Features/2.2.0": {
        "dependencies": {
          "Microsoft.Extensions.Primitives": "6.0.0"
        }
      },
      "Microsoft.AspNetCore.Mvc.Versioning/5.0.0": {
        "runtime": {
          "lib/net5.0/Microsoft.AspNetCore.Mvc.Versioning.dll": {
            "assemblyVersion": "5.0.0.0",
            "fileVersion": "5.0.7710.5690"
          }
        }
      },
      "Microsoft.AspNetCore.Mvc.Versioning.ApiExplorer/5.0.0": {
        "dependencies": {
          "Microsoft.AspNetCore.Mvc.Versioning": "5.0.0"
        },
        "runtime": {
          "lib/net5.0/Microsoft.AspNetCore.Mvc.Versioning.ApiExplorer.dll": {
            "assemblyVersion": "5.0.0.0",
            "fileVersion": "5.0.7710.5714"
          }
        }
      },
      "Microsoft.AspNetCore.WebUtilities/2.2.0": {
        "dependencies": {
          "Microsoft.Net.Http.Headers": "2.2.0",
          "System.Text.Encodings.Web": "4.5.0"
        }
      },
      "Microsoft.CSharp/4.7.0": {},
      "Microsoft.Data.SqlClient/2.1.4": {
        "dependencies": {
          "Microsoft.Data.SqlClient.SNI.runtime": "2.1.1",
          "Microsoft.Identity.Client": "4.21.1",
          "Microsoft.IdentityModel.JsonWebTokens": "6.10.0",
          "Microsoft.IdentityModel.Protocols.OpenIdConnect": "6.10.0",
          "Microsoft.Win32.Registry": "5.0.0",
          "System.Configuration.ConfigurationManager": "5.0.0",
          "System.Diagnostics.DiagnosticSource": "6.0.0",
          "System.Runtime.Caching": "4.7.0",
          "System.Security.Principal.Windows": "5.0.0",
          "System.Text.Encoding.CodePages": "4.7.0"
        },
        "runtime": {
          "lib/netcoreapp3.1/Microsoft.Data.SqlClient.dll": {
            "assemblyVersion": "2.0.20168.4",
            "fileVersion": "2.0.20168.4"
          }
        },
        "runtimeTargets": {
          "runtimes/unix/lib/netcoreapp3.1/Microsoft.Data.SqlClient.dll": {
            "rid": "unix",
            "assetType": "runtime",
            "assemblyVersion": "2.0.20168.4",
            "fileVersion": "2.0.20168.4"
          },
          "runtimes/win/lib/netcoreapp3.1/Microsoft.Data.SqlClient.dll": {
            "rid": "win",
            "assetType": "runtime",
            "assemblyVersion": "2.0.20168.4",
            "fileVersion": "2.0.20168.4"
          }
        }
      },
      "Microsoft.Data.SqlClient.SNI.runtime/2.1.1": {
        "runtimeTargets": {
          "runtimes/win-arm/native/Microsoft.Data.SqlClient.SNI.dll": {
            "rid": "win-arm",
            "assetType": "native",
            "fileVersion": "2.1.1.0"
          },
          "runtimes/win-arm64/native/Microsoft.Data.SqlClient.SNI.dll": {
            "rid": "win-arm64",
            "assetType": "native",
            "fileVersion": "2.1.1.0"
          },
          "runtimes/win-x64/native/Microsoft.Data.SqlClient.SNI.dll": {
            "rid": "win-x64",
            "assetType": "native",
            "fileVersion": "2.1.1.0"
          },
          "runtimes/win-x86/native/Microsoft.Data.SqlClient.SNI.dll": {
            "rid": "win-x86",
            "assetType": "native",
            "fileVersion": "2.1.1.0"
          }
        }
      },
      "Microsoft.EntityFrameworkCore/6.0.1": {
        "dependencies": {
          "Microsoft.EntityFrameworkCore.Abstractions": "6.0.1",
          "Microsoft.EntityFrameworkCore.Analyzers": "6.0.1",
          "Microsoft.Extensions.Caching.Memory": "6.0.0",
          "Microsoft.Extensions.DependencyInjection": "6.0.0",
          "Microsoft.Extensions.Logging": "6.0.0",
          "System.Collections.Immutable": "6.0.0",
          "System.Diagnostics.DiagnosticSource": "6.0.0"
        },
        "runtime": {
          "lib/net6.0/Microsoft.EntityFrameworkCore.dll": {
            "assemblyVersion": "6.0.1.0",
            "fileVersion": "6.0.121.56712"
          }
        }
      },
      "Microsoft.EntityFrameworkCore.Abstractions/6.0.1": {
        "runtime": {
          "lib/net6.0/Microsoft.EntityFrameworkCore.Abstractions.dll": {
            "assemblyVersion": "6.0.1.0",
            "fileVersion": "6.0.121.56712"
          }
        }
      },
      "Microsoft.EntityFrameworkCore.Analyzers/6.0.1": {},
      "Microsoft.EntityFrameworkCore.Relational/6.0.1": {
        "dependencies": {
          "Microsoft.EntityFrameworkCore": "6.0.1",
          "Microsoft.Extensions.Configuration.Abstractions": "6.0.0"
        },
        "runtime": {
          "lib/net6.0/Microsoft.EntityFrameworkCore.Relational.dll": {
            "assemblyVersion": "6.0.1.0",
            "fileVersion": "6.0.121.56712"
          }
        }
      },
      "Microsoft.EntityFrameworkCore.SqlServer/6.0.1": {
        "dependencies": {
          "Microsoft.Data.SqlClient": "2.1.4",
          "Microsoft.EntityFrameworkCore.Relational": "6.0.1"
        },
        "runtime": {
          "lib/net6.0/Microsoft.EntityFrameworkCore.SqlServer.dll": {
            "assemblyVersion": "6.0.1.0",
            "fileVersion": "6.0.121.56712"
          }
        }
      },
      "Microsoft.Extensions.ApiDescription.Server/3.0.0": {},
      "Microsoft.Extensions.Caching.Abstractions/6.0.0": {
        "dependencies": {
          "Microsoft.Extensions.Primitives": "6.0.0"
        }
      },
      "Microsoft.Extensions.Caching.Memory/6.0.0": {
        "dependencies": {
          "Microsoft.Extensions.Caching.Abstractions": "6.0.0",
          "Microsoft.Extensions.DependencyInjection.Abstractions": "6.0.0",
          "Microsoft.Extensions.Logging.Abstractions": "6.0.0",
          "Microsoft.Extensions.Options": "6.0.0",
          "Microsoft.Extensions.Primitives": "6.0.0"
        }
      },
      "Microsoft.Extensions.Configuration/2.0.0": {
        "dependencies": {
          "Microsoft.Extensions.Configuration.Abstractions": "6.0.0"
        }
      },
      "Microsoft.Extensions.Configuration.Abstractions/6.0.0": {
        "dependencies": {
          "Microsoft.Extensions.Primitives": "6.0.0"
        }
      },
      "Microsoft.Extensions.Configuration.Binder/2.0.0": {
        "dependencies": {
          "Microsoft.Extensions.Configuration": "2.0.0"
        }
      },
      "Microsoft.Extensions.DependencyInjection/6.0.0": {
        "dependencies": {
          "Microsoft.Extensions.DependencyInjection.Abstractions": "6.0.0",
          "System.Runtime.CompilerServices.Unsafe": "6.0.0"
        }
      },
      "Microsoft.Extensions.DependencyInjection.Abstractions/6.0.0": {},
      "Microsoft.Extensions.DependencyModel/3.0.0": {
        "dependencies": {
          "System.Text.Json": "4.6.0"
        },
        "runtime": {
          "lib/netstandard2.0/Microsoft.Extensions.DependencyModel.dll": {
            "assemblyVersion": "3.0.0.0",
            "fileVersion": "3.0.19.46305"
          }
        }
      },
      "Microsoft.Extensions.FileProviders.Abstractions/3.1.8": {
        "dependencies": {
          "Microsoft.Extensions.Primitives": "6.0.0"
        }
      },
      "Microsoft.Extensions.Hosting.Abstractions/3.1.8": {
        "dependencies": {
          "Microsoft.Extensions.Configuration.Abstractions": "6.0.0",
          "Microsoft.Extensions.DependencyInjection.Abstractions": "6.0.0",
          "Microsoft.Extensions.FileProviders.Abstractions": "3.1.8",
          "Microsoft.Extensions.Logging.Abstractions": "6.0.0"
        }
      },
      "Microsoft.Extensions.Logging/6.0.0": {
        "dependencies": {
          "Microsoft.Extensions.DependencyInjection": "6.0.0",
          "Microsoft.Extensions.DependencyInjection.Abstractions": "6.0.0",
          "Microsoft.Extensions.Logging.Abstractions": "6.0.0",
          "Microsoft.Extensions.Options": "6.0.0",
          "System.Diagnostics.DiagnosticSource": "6.0.0"
        }
      },
      "Microsoft.Extensions.Logging.Abstractions/6.0.0": {},
      "Microsoft.Extensions.ObjectPool/2.2.0": {},
      "Microsoft.Extensions.Options/6.0.0": {
        "dependencies": {
          "Microsoft.Extensions.DependencyInjection.Abstractions": "6.0.0",
          "Microsoft.Extensions.Primitives": "6.0.0"
        }
      },
      "Microsoft.Extensions.Options.ConfigurationExtensions/2.0.0": {
        "dependencies": {
          "Microsoft.Extensions.Configuration.Abstractions": "6.0.0",
          "Microsoft.Extensions.Configuration.Binder": "2.0.0",
          "Microsoft.Extensions.DependencyInjection.Abstractions": "6.0.0",
          "Microsoft.Extensions.Options": "6.0.0"
        }
      },
      "Microsoft.Extensions.Primitives/6.0.0": {
        "dependencies": {
          "System.Runtime.CompilerServices.Unsafe": "6.0.0"
        }
      },
      "Microsoft.Identity.Client/4.21.1": {
        "runtime": {
          "lib/netcoreapp2.1/Microsoft.Identity.Client.dll": {
            "assemblyVersion": "4.21.1.0",
            "fileVersion": "4.21.1.0"
          }
        }
      },
      "Microsoft.IdentityModel.JsonWebTokens/6.10.0": {
        "dependencies": {
          "Microsoft.IdentityModel.Tokens": "6.10.0"
        },
        "runtime": {
          "lib/netstandard2.0/Microsoft.IdentityModel.JsonWebTokens.dll": {
            "assemblyVersion": "6.10.0.0",
            "fileVersion": "6.10.0.20330"
          }
        }
      },
      "Microsoft.IdentityModel.Logging/6.10.0": {
        "runtime": {
          "lib/netstandard2.0/Microsoft.IdentityModel.Logging.dll": {
            "assemblyVersion": "6.10.0.0",
            "fileVersion": "6.10.0.20330"
          }
        }
      },
      "Microsoft.IdentityModel.Protocols/6.10.0": {
        "dependencies": {
          "Microsoft.IdentityModel.Logging": "6.10.0",
          "Microsoft.IdentityModel.Tokens": "6.10.0"
        },
        "runtime": {
          "lib/netstandard2.0/Microsoft.IdentityModel.Protocols.dll": {
            "assemblyVersion": "6.10.0.0",
            "fileVersion": "6.10.0.20330"
          }
        }
      },
      "Microsoft.IdentityModel.Protocols.OpenIdConnect/6.10.0": {
        "dependencies": {
          "Microsoft.IdentityModel.Protocols": "6.10.0",
          "System.IdentityModel.Tokens.Jwt": "6.10.0"
        },
        "runtime": {
          "lib/netstandard2.0/Microsoft.IdentityModel.Protocols.OpenIdConnect.dll": {
            "assemblyVersion": "6.10.0.0",
            "fileVersion": "6.10.0.20330"
          }
        }
      },
      "Microsoft.IdentityModel.Tokens/6.10.0": {
        "dependencies": {
          "Microsoft.CSharp": "4.7.0",
          "Microsoft.IdentityModel.Logging": "6.10.0",
          "System.Security.Cryptography.Cng": "4.5.0"
        },
        "runtime": {
          "lib/netstandard2.0/Microsoft.IdentityModel.Tokens.dll": {
            "assemblyVersion": "6.10.0.0",
            "fileVersion": "6.10.0.20330"
          }
        }
      },
      "Microsoft.Maui.Graphics/6.0.300-rc.1.1215": {
        "dependencies": {
          "System.Numerics.Vectors": "4.5.0"
        },
        "runtime": {
          "lib/netstandard2.1/Microsoft.Maui.Graphics.dll": {
            "assemblyVersion": "1.0.0.0",
            "fileVersion": "6.0.300.29"
          }
        }
      },
      "Microsoft.Maui.Graphics.Skia/6.0.300-rc.1.1215": {
        "dependencies": {
          "Microsoft.Maui.Graphics": "6.0.300-rc.1.1215",
          "SkiaSharp": "2.88.0-preview.232"
        },
        "runtime": {
          "lib/netstandard2.1/Microsoft.Maui.Graphics.Skia.dll": {
            "assemblyVersion": "1.0.0.0",
            "fileVersion": "6.0.300.29"
          }
        }
      },
      "Microsoft.Net.Http.Headers/2.2.0": {
        "dependencies": {
          "Microsoft.Extensions.Primitives": "6.0.0",
          "System.Buffers": "4.5.1"
        }
      },
      "Microsoft.NETCore.Platforms/5.0.0": {},
      "Microsoft.OpenApi/1.2.3": {
        "runtime": {
          "lib/netstandard2.0/Microsoft.OpenApi.dll": {
            "assemblyVersion": "1.2.3.0",
            "fileVersion": "1.2.3.0"
          }
        }
      },
      "Microsoft.Win32.Registry/5.0.0": {
        "dependencies": {
          "System.Security.AccessControl": "5.0.0",
          "System.Security.Principal.Windows": "5.0.0"
        }
      },
      "Microsoft.Win32.SystemEvents/5.0.0": {
        "dependencies": {
          "Microsoft.NETCore.Platforms": "5.0.0"
        },
        "runtime": {
          "lib/netstandard2.0/Microsoft.Win32.SystemEvents.dll": {
            "assemblyVersion": "5.0.0.0",
            "fileVersion": "5.0.20.51904"
          }
        },
        "runtimeTargets": {
          "runtimes/win/lib/netcoreapp3.0/Microsoft.Win32.SystemEvents.dll": {
            "rid": "win",
            "assetType": "runtime",
            "assemblyVersion": "5.0.0.0",
            "fileVersion": "5.0.20.51904"
          }
        }
      },
      "MimeKit/3.2.0": {
        "dependencies": {
          "Portable.BouncyCastle": "1.9.0",
          "System.Security.Cryptography.Pkcs": "6.0.0"
        },
        "runtime": {
          "lib/net6.0/MimeKit.dll": {
            "assemblyVersion": "3.2.0.0",
            "fileVersion": "3.2.0.0"
          }
        }
      },
      "MimeTypeMapOfficial/1.0.17": {
        "runtime": {
          "lib/netcoreapp3.1/MimeTypes.dll": {
            "assemblyVersion": "2.3.2.0",
            "fileVersion": "2.3.2.0"
          }
        }
      },
      "MongoDB.Bson/2.15.0": {
        "dependencies": {
          "System.Runtime.CompilerServices.Unsafe": "6.0.0"
        },
        "runtime": {
          "lib/netstandard2.1/MongoDB.Bson.dll": {
            "assemblyVersion": "2.15.0.0",
            "fileVersion": "2.15.0.0"
          }
        }
      },
      "MongoDB.Driver/2.15.0": {
        "dependencies": {
          "MongoDB.Bson": "2.15.0",
          "MongoDB.Driver.Core": "2.15.0",
          "MongoDB.Libmongocrypt": "1.3.0"
        },
        "runtime": {
          "lib/netstandard2.1/MongoDB.Driver.dll": {
            "assemblyVersion": "2.15.0.0",
            "fileVersion": "2.15.0.0"
          }
        }
      },
      "MongoDB.Driver.Core/2.15.0": {
        "dependencies": {
          "DnsClient": "1.6.0",
          "MongoDB.Bson": "2.15.0",
          "MongoDB.Libmongocrypt": "1.3.0",
          "SharpCompress": "0.30.1",
          "System.Buffers": "4.5.1"
        },
        "runtime": {
          "lib/netstandard2.1/MongoDB.Driver.Core.dll": {
            "assemblyVersion": "2.15.0.0",
            "fileVersion": "2.15.0.0"
          }
        },
        "runtimeTargets": {
          "runtimes/linux/native/libsnappy64.so": {
            "rid": "linux",
            "assetType": "native",
            "fileVersion": "0.0.0.0"
          },
          "runtimes/linux/native/libzstd.so": {
            "rid": "linux",
            "assetType": "native",
            "fileVersion": "0.0.0.0"
          },
          "runtimes/osx/native/libsnappy64.dylib": {
            "rid": "osx",
            "assetType": "native",
            "fileVersion": "0.0.0.0"
          },
          "runtimes/osx/native/libzstd.dylib": {
            "rid": "osx",
            "assetType": "native",
            "fileVersion": "0.0.0.0"
          },
          "runtimes/win/native/libzstd.dll": {
            "rid": "win",
            "assetType": "native",
            "fileVersion": "0.0.0.0"
          },
          "runtimes/win/native/snappy32.dll": {
            "rid": "win",
            "assetType": "native",
            "fileVersion": "1.1.1.7"
          },
          "runtimes/win/native/snappy64.dll": {
            "rid": "win",
            "assetType": "native",
            "fileVersion": "1.1.1.7"
          }
        }
      },
      "MongoDB.Libmongocrypt/1.3.0": {
        "runtime": {
          "lib/netstandard2.1/MongoDB.Libmongocrypt.dll": {
            "assemblyVersion": "1.3.0.0",
            "fileVersion": "1.3.0.0"
          }
        },
        "runtimeTargets": {
          "runtimes/linux/native/libmongocrypt.so": {
            "rid": "linux",
            "assetType": "native",
            "fileVersion": "0.0.0.0"
          },
          "runtimes/osx/native/libmongocrypt.dylib": {
            "rid": "osx",
            "assetType": "native",
            "fileVersion": "0.0.0.0"
          },
          "runtimes/win/native/mongocrypt.dll": {
            "rid": "win",
            "assetType": "native",
            "fileVersion": "0.0.0.0"
          }
        }
      },
      "NeoSmart.AsyncLock/3.2.1": {
        "runtime": {
          "lib/net5.0/AsyncLock.dll": {
            "assemblyVersion": "3.2.1.0",
            "fileVersion": "3.2.1.0"
          }
        }
      },
      "Newtonsoft.Json/11.0.1": {
        "runtime": {
          "lib/netstandard2.0/Newtonsoft.Json.dll": {
            "assemblyVersion": "11.0.0.0",
            "fileVersion": "11.0.1.21818"
          }
        }
      },
      "NIdenticon/1.4.0": {
        "dependencies": {
          "System.Drawing.Common": "5.0.0"
        },
        "runtime": {
          "lib/netcoreapp2.0/NIdenticon.dll": {
            "assemblyVersion": "1.4.0.0",
            "fileVersion": "1.4.0.0"
          }
        }
      },
      "Pipelines.Sockets.Unofficial/2.2.0": {
        "dependencies": {
          "System.IO.Pipelines": "5.0.0"
        },
        "runtime": {
          "lib/net5.0/Pipelines.Sockets.Unofficial.dll": {
            "assemblyVersion": "1.0.0.0",
            "fileVersion": "2.2.0.45337"
          }
        }
      },
      "Polly/7.2.3": {
        "runtime": {
          "lib/netstandard2.0/Polly.dll": {
            "assemblyVersion": "7.0.0.0",
            "fileVersion": "7.2.3.0"
          }
        }
      },
      "Portable.BouncyCastle/1.9.0": {
        "runtime": {
          "lib/netstandard2.0/BouncyCastle.Crypto.dll": {
            "assemblyVersion": "1.9.0.0",
            "fileVersion": "1.9.0.1"
          }
        }
      },
      "RabbitMQ.Client/6.2.2": {
        "dependencies": {
          "System.Memory": "4.5.4",
          "System.Threading.Channels": "4.7.1"
        },
        "runtime": {
          "lib/netstandard2.0/RabbitMQ.Client.dll": {
            "assemblyVersion": "6.0.0.0",
            "fileVersion": "6.2.2.0"
          }
        }
      },
      "runtime.native.System.Data.SqlClient.sni/4.4.0": {
        "dependencies": {
          "runtime.win-arm64.runtime.native.System.Data.SqlClient.sni": "4.4.0",
          "runtime.win-x64.runtime.native.System.Data.SqlClient.sni": "4.4.0",
          "runtime.win-x86.runtime.native.System.Data.SqlClient.sni": "4.4.0"
        }
      },
      "runtime.win-arm64.runtime.native.System.Data.SqlClient.sni/4.4.0": {
        "runtimeTargets": {
          "runtimes/win-arm64/native/sni.dll": {
            "rid": "win-arm64",
            "assetType": "native",
            "fileVersion": "4.6.25512.1"
          }
        }
      },
      "runtime.win-x64.runtime.native.System.Data.SqlClient.sni/4.4.0": {
        "runtimeTargets": {
          "runtimes/win-x64/native/sni.dll": {
            "rid": "win-x64",
            "assetType": "native",
            "fileVersion": "4.6.25512.1"
          }
        }
      },
      "runtime.win-x86.runtime.native.System.Data.SqlClient.sni/4.4.0": {
        "runtimeTargets": {
          "runtimes/win-x86/native/sni.dll": {
            "rid": "win-x86",
            "assetType": "native",
            "fileVersion": "4.6.25512.1"
          }
        }
      },
      "Scriban/5.4.0": {
        "runtime": {
          "lib/net6.0/Scriban.dll": {
            "assemblyVersion": "5.4.0.0",
            "fileVersion": "5.4.0.0"
          }
        }
      },
      "Serilog/2.10.0": {
        "runtime": {
          "lib/netstandard2.1/Serilog.dll": {
            "assemblyVersion": "2.0.0.0",
            "fileVersion": "2.10.0.0"
          }
        }
      },
      "Serilog.AspNetCore/5.0.0": {
        "dependencies": {
          "Microsoft.Extensions.DependencyInjection": "6.0.0",
          "Microsoft.Extensions.Logging": "6.0.0",
          "Serilog": "2.10.0",
          "Serilog.Extensions.Hosting": "4.2.0",
          "Serilog.Formatting.Compact": "1.1.0",
          "Serilog.Settings.Configuration": "3.3.0",
          "Serilog.Sinks.Console": "4.0.1",
          "Serilog.Sinks.Debug": "2.0.0",
          "Serilog.Sinks.File": "5.0.0"
        },
        "runtime": {
          "lib/net5.0/Serilog.AspNetCore.dll": {
            "assemblyVersion": "2.0.0.0",
            "fileVersion": "5.0.0.0"
          }
        }
      },
      "Serilog.Extensions.Hosting/4.2.0": {
        "dependencies": {
          "Microsoft.Extensions.DependencyInjection.Abstractions": "6.0.0",
          "Microsoft.Extensions.Hosting.Abstractions": "3.1.8",
          "Microsoft.Extensions.Logging.Abstractions": "6.0.0",
          "Serilog": "2.10.0",
          "Serilog.Extensions.Logging": "3.1.0"
        },
        "runtime": {
          "lib/netstandard2.1/Serilog.Extensions.Hosting.dll": {
            "assemblyVersion": "2.0.0.0",
            "fileVersion": "4.2.0.0"
          }
        }
      },
      "Serilog.Extensions.Logging/3.1.0": {
        "dependencies": {
          "Microsoft.Extensions.Logging": "6.0.0",
          "Serilog": "2.10.0"
        },
        "runtime": {
          "lib/netstandard2.0/Serilog.Extensions.Logging.dll": {
            "assemblyVersion": "2.0.0.0",
            "fileVersion": "3.1.0.0"
          }
        }
      },
      "Serilog.Formatting.Compact/1.1.0": {
        "dependencies": {
          "Serilog": "2.10.0"
        },
        "runtime": {
          "lib/netstandard2.0/Serilog.Formatting.Compact.dll": {
            "assemblyVersion": "1.1.0.0",
            "fileVersion": "1.1.0.0"
          }
        }
      },
      "Serilog.Settings.Configuration/3.3.0": {
        "dependencies": {
          "Microsoft.Extensions.DependencyModel": "3.0.0",
          "Microsoft.Extensions.Options.ConfigurationExtensions": "2.0.0",
          "Serilog": "2.10.0"
        },
        "runtime": {
          "lib/netstandard2.0/Serilog.Settings.Configuration.dll": {
            "assemblyVersion": "3.3.0.0",
            "fileVersion": "3.3.0.0"
          }
        }
      },
      "Serilog.Sinks.Console/4.0.1": {
        "dependencies": {
          "Serilog": "2.10.0"
        },
        "runtime": {
          "lib/net5.0/Serilog.Sinks.Console.dll": {
            "assemblyVersion": "4.0.1.0",
            "fileVersion": "4.0.1.0"
          }
        }
      },
      "Serilog.Sinks.Debug/2.0.0": {
        "dependencies": {
          "Serilog": "2.10.0"
        },
        "runtime": {
          "lib/netstandard2.1/Serilog.Sinks.Debug.dll": {
            "assemblyVersion": "2.0.0.0",
            "fileVersion": "2.0.0.0"
          }
        }
      },
      "Serilog.Sinks.File/5.0.0": {
        "dependencies": {
          "Serilog": "2.10.0"
        },
        "runtime": {
          "lib/net5.0/Serilog.Sinks.File.dll": {
            "assemblyVersion": "5.0.0.0",
            "fileVersion": "5.0.0.0"
          }
        }
      },
      "SharpCompress/0.30.1": {
        "runtime": {
          "lib/net5.0/SharpCompress.dll": {
            "assemblyVersion": "0.30.1.0",
            "fileVersion": "0.30.1.0"
          }
        }
      },
      "SkiaSharp/2.88.0-preview.232": {
        "dependencies": {
          "SkiaSharp.NativeAssets.Win32": "2.88.0-preview.232",
          "SkiaSharp.NativeAssets.macOS": "2.88.0-preview.232",
          "System.Memory": "4.5.4"
        },
        "runtime": {
          "lib/netstandard2.0/SkiaSharp.dll": {
            "assemblyVersion": "2.88.0.0",
            "fileVersion": "2.88.0.0"
          }
        }
      },
      "SkiaSharp.NativeAssets.Linux/2.88.0-preview.232": {
        "dependencies": {
          "SkiaSharp": "2.88.0-preview.232"
        },
        "runtimeTargets": {
          "runtimes/linux-arm/native/libSkiaSharp.so": {
            "rid": "linux-arm",
            "assetType": "native",
            "fileVersion": "0.0.0.0"
          },
          "runtimes/linux-arm64/native/libSkiaSharp.so": {
            "rid": "linux-arm64",
            "assetType": "native",
            "fileVersion": "0.0.0.0"
          },
          "runtimes/linux-musl-x64/native/libSkiaSharp.so": {
            "rid": "linux-musl-x64",
            "assetType": "native",
            "fileVersion": "0.0.0.0"
          },
          "runtimes/linux-x64/native/libSkiaSharp.so": {
            "rid": "linux-x64",
            "assetType": "native",
            "fileVersion": "0.0.0.0"
          }
        }
      },
      "SkiaSharp.NativeAssets.Linux.NoDependencies/2.88.0-preview.232": {
        "dependencies": {
          "SkiaSharp": "2.88.0-preview.232"
        }
      },
      "SkiaSharp.NativeAssets.macOS/2.88.0-preview.232": {
        "runtimeTargets": {
          "runtimes/osx/native/libSkiaSharp.dylib": {
            "rid": "osx",
            "assetType": "native",
            "fileVersion": "0.0.0.0"
          }
        }
      },
      "SkiaSharp.NativeAssets.Win32/2.88.0-preview.232": {
        "runtimeTargets": {
          "runtimes/win-arm64/native/libSkiaSharp.dll": {
            "rid": "win-arm64",
            "assetType": "native",
            "fileVersion": "0.0.0.0"
          },
          "runtimes/win-x64/native/libSkiaSharp.dll": {
            "rid": "win-x64",
            "assetType": "native",
            "fileVersion": "0.0.0.0"
          },
          "runtimes/win-x86/native/libSkiaSharp.dll": {
            "rid": "win-x86",
            "assetType": "native",
            "fileVersion": "0.0.0.0"
          }
        }
      },
      "StackExchange.Redis/2.2.88": {
        "dependencies": {
          "Pipelines.Sockets.Unofficial": "2.2.0",
          "System.Diagnostics.PerformanceCounter": "5.0.0"
        },
        "runtime": {
          "lib/net5.0/StackExchange.Redis.dll": {
            "assemblyVersion": "2.0.0.0",
            "fileVersion": "2.2.88.56325"
          }
        }
      },
      "Swashbuckle.AspNetCore/6.2.3": {
        "dependencies": {
          "Microsoft.Extensions.ApiDescription.Server": "3.0.0",
          "Swashbuckle.AspNetCore.Swagger": "6.2.3",
          "Swashbuckle.AspNetCore.SwaggerGen": "6.2.3",
          "Swashbuckle.AspNetCore.SwaggerUI": "6.2.3"
        }
      },
      "Swashbuckle.AspNetCore.Swagger/6.2.3": {
        "dependencies": {
          "Microsoft.OpenApi": "1.2.3"
        },
        "runtime": {
          "lib/net6.0/Swashbuckle.AspNetCore.Swagger.dll": {
            "assemblyVersion": "6.2.3.0",
            "fileVersion": "6.2.3.0"
          }
        }
      },
      "Swashbuckle.AspNetCore.SwaggerGen/6.2.3": {
        "dependencies": {
          "Swashbuckle.AspNetCore.Swagger": "6.2.3"
        },
        "runtime": {
          "lib/net6.0/Swashbuckle.AspNetCore.SwaggerGen.dll": {
            "assemblyVersion": "6.2.3.0",
            "fileVersion": "6.2.3.0"
          }
        }
      },
      "Swashbuckle.AspNetCore.SwaggerUI/6.2.3": {
        "runtime": {
          "lib/net6.0/Swashbuckle.AspNetCore.SwaggerUI.dll": {
            "assemblyVersion": "6.2.3.0",
            "fileVersion": "6.2.3.0"
          }
        }
      },
      "System.Buffers/4.5.1": {},
      "System.Collections.Immutable/6.0.0": {
        "dependencies": {
          "System.Runtime.CompilerServices.Unsafe": "6.0.0"
        }
      },
      "System.Configuration.ConfigurationManager/5.0.0": {
        "dependencies": {
          "System.Security.Cryptography.ProtectedData": "5.0.0",
          "System.Security.Permissions": "5.0.0"
        },
        "runtime": {
          "lib/netstandard2.0/System.Configuration.ConfigurationManager.dll": {
            "assemblyVersion": "5.0.0.0",
            "fileVersion": "5.0.20.51904"
          }
        }
      },
      "System.Data.SqlClient/4.4.0": {
        "dependencies": {
          "Microsoft.Win32.Registry": "5.0.0",
          "System.Security.Principal.Windows": "5.0.0",
          "System.Text.Encoding.CodePages": "4.7.0",
          "runtime.native.System.Data.SqlClient.sni": "4.4.0"
        },
        "runtime": {
          "lib/netstandard2.0/System.Data.SqlClient.dll": {
            "assemblyVersion": "4.2.0.0",
            "fileVersion": "4.6.25519.3"
          }
        },
        "runtimeTargets": {
          "runtimes/unix/lib/netstandard2.0/System.Data.SqlClient.dll": {
            "rid": "unix",
            "assetType": "runtime",
            "assemblyVersion": "4.2.0.0",
            "fileVersion": "4.6.25519.3"
          },
          "runtimes/win/lib/netstandard2.0/System.Data.SqlClient.dll": {
            "rid": "win",
            "assetType": "runtime",
            "assemblyVersion": "4.2.0.0",
            "fileVersion": "4.6.25519.3"
          }
        }
      },
      "System.Diagnostics.DiagnosticSource/6.0.0": {
        "dependencies": {
          "System.Runtime.CompilerServices.Unsafe": "6.0.0"
        }
      },
      "System.Diagnostics.PerformanceCounter/5.0.0": {
        "dependencies": {
          "Microsoft.NETCore.Platforms": "5.0.0",
          "Microsoft.Win32.Registry": "5.0.0",
          "System.Configuration.ConfigurationManager": "5.0.0",
          "System.Security.Principal.Windows": "5.0.0"
        },
        "runtime": {
          "lib/netstandard2.0/System.Diagnostics.PerformanceCounter.dll": {
            "assemblyVersion": "5.0.0.0",
            "fileVersion": "5.0.20.51904"
          }
        },
        "runtimeTargets": {
          "runtimes/win/lib/netcoreapp2.0/System.Diagnostics.PerformanceCounter.dll": {
            "rid": "win",
            "assetType": "runtime",
            "assemblyVersion": "5.0.0.0",
            "fileVersion": "5.0.20.51904"
          }
        }
      },
      "System.Drawing.Common/5.0.0": {
        "dependencies": {
          "Microsoft.Win32.SystemEvents": "5.0.0"
        },
        "runtime": {
          "lib/netcoreapp3.0/System.Drawing.Common.dll": {
            "assemblyVersion": "5.0.0.0",
            "fileVersion": "5.0.20.51904"
          }
        },
        "runtimeTargets": {
          "runtimes/unix/lib/netcoreapp3.0/System.Drawing.Common.dll": {
            "rid": "unix",
            "assetType": "runtime",
            "assemblyVersion": "5.0.0.0",
            "fileVersion": "5.0.20.51904"
          },
          "runtimes/win/lib/netcoreapp3.0/System.Drawing.Common.dll": {
            "rid": "win",
            "assetType": "runtime",
            "assemblyVersion": "5.0.0.0",
            "fileVersion": "5.0.20.51904"
          }
        }
      },
      "System.Formats.Asn1/6.0.0": {},
      "System.IdentityModel.Tokens.Jwt/6.10.0": {
        "dependencies": {
          "Microsoft.IdentityModel.JsonWebTokens": "6.10.0",
          "Microsoft.IdentityModel.Tokens": "6.10.0"
        },
        "runtime": {
          "lib/netstandard2.0/System.IdentityModel.Tokens.Jwt.dll": {
            "assemblyVersion": "6.10.0.0",
            "fileVersion": "6.10.0.20330"
          }
        }
      },
      "System.IO.Pipelines/5.0.0": {},
      "System.Memory/4.5.4": {},
      "System.Numerics.Vectors/4.5.0": {},
      "System.Runtime.Caching/4.7.0": {
        "dependencies": {
          "System.Configuration.ConfigurationManager": "5.0.0"
        },
        "runtime": {
          "lib/netstandard2.0/System.Runtime.Caching.dll": {
            "assemblyVersion": "4.0.1.0",
            "fileVersion": "4.700.19.56404"
          }
        },
        "runtimeTargets": {
          "runtimes/win/lib/netstandard2.0/System.Runtime.Caching.dll": {
            "rid": "win",
            "assetType": "runtime",
            "assemblyVersion": "4.0.1.0",
            "fileVersion": "4.700.19.56404"
          }
        }
      },
      "System.Runtime.CompilerServices.Unsafe/6.0.0": {},
      "System.Security.AccessControl/5.0.0": {
        "dependencies": {
          "Microsoft.NETCore.Platforms": "5.0.0",
          "System.Security.Principal.Windows": "5.0.0"
        }
      },
      "System.Security.Cryptography.Cng/4.5.0": {},
      "System.Security.Cryptography.Pkcs/6.0.0": {
        "dependencies": {
          "System.Formats.Asn1": "6.0.0"
        }
      },
      "System.Security.Cryptography.ProtectedData/5.0.0": {
        "runtime": {
          "lib/netstandard2.0/System.Security.Cryptography.ProtectedData.dll": {
            "assemblyVersion": "5.0.0.0",
            "fileVersion": "5.0.20.51904"
          }
        },
        "runtimeTargets": {
          "runtimes/win/lib/netstandard2.0/System.Security.Cryptography.ProtectedData.dll": {
            "rid": "win",
            "assetType": "runtime",
            "assemblyVersion": "5.0.0.0",
            "fileVersion": "5.0.20.51904"
          }
        }
      },
      "System.Security.Permissions/5.0.0": {
        "dependencies": {
          "System.Security.AccessControl": "5.0.0",
          "System.Windows.Extensions": "5.0.0"
        },
        "runtime": {
          "lib/net5.0/System.Security.Permissions.dll": {
            "assemblyVersion": "5.0.0.0",
            "fileVersion": "5.0.20.51904"
          }
        }
      },
      "System.Security.Principal.Windows/5.0.0": {},
      "System.Text.Encoding.CodePages/4.7.0": {
        "dependencies": {
          "Microsoft.NETCore.Platforms": "5.0.0"
        }
      },
      "System.Text.Encodings.Web/4.5.0": {},
      "System.Text.Json/4.6.0": {},
      "System.Threading.Channels/4.7.1": {},
      "System.Windows.Extensions/5.0.0": {
        "dependencies": {
          "System.Drawing.Common": "5.0.0"
        },
        "runtime": {
          "lib/netcoreapp3.0/System.Windows.Extensions.dll": {
            "assemblyVersion": "5.0.0.0",
            "fileVersion": "5.0.20.51904"
          }
        },
        "runtimeTargets": {
          "runtimes/win/lib/netcoreapp3.0/System.Windows.Extensions.dll": {
            "rid": "win",
            "assetType": "runtime",
            "assemblyVersion": "5.0.0.0",
            "fileVersion": "5.0.20.51904"
          }
        }
      },
      "Novanet.Core/1.0.0": {
        "dependencies": {
          "AioCore.Mongo.Driver": "1.2.4",
          "AutoMapper": "11.0.0",
          "Dapper": "2.0.123",
          "FastMember": "1.5.0",
          "FluentValidation": "10.3.6",
          "FluentValidation.AspNetCore": "10.3.6",
          "Hangfire.AspNetCore": "1.8.0-beta4",
          "Hangfire.Dashboard.Basic.Authentication": "5.0.0",
          "Hangfire.SqlServer": "1.8.0-beta4",
          "MailKit": "3.2.0",
          "MediatR": "10.0.1",
          "MediatR.Extensions.Microsoft.DependencyInjection": "10.0.1",
          "Microsoft.AspNetCore.Authentication.JwtBearer": "6.0.1",
          "Microsoft.AspNetCore.Mvc.Versioning.ApiExplorer": "5.0.0",
          "Microsoft.EntityFrameworkCore.SqlServer": "6.0.1",
          "Microsoft.Maui.Graphics": "6.0.300-rc.1.1215",
          "Microsoft.Maui.Graphics.Skia": "6.0.300-rc.1.1215",
          "MimeKit": "3.2.0",
          "MimeTypeMapOfficial": "1.0.17",
          "NIdenticon": "1.4.0",
          "NeoSmart.AsyncLock": "3.2.1",
          "Novanet.EventBus": "1.0.0",
          "Polly": "7.2.3",
          "Scriban": "5.4.0",
          "Serilog.AspNetCore": "5.0.0",
          "Serilog.Sinks.File": "5.0.0",
          "SkiaSharp": "2.88.0-preview.232",
          "SkiaSharp.NativeAssets.Linux": "2.88.0-preview.232",
          "SkiaSharp.NativeAssets.Linux.NoDependencies": "2.88.0-preview.232",
          "StackExchange.Redis": "2.2.88",
          "Swashbuckle.AspNetCore": "6.2.3"
        },
        "runtime": {
          "Novanet.Core.dll": {}
        }
      },
      "Novanet.EventBus/1.0.0": {
        "dependencies": {
          "Polly": "7.2.3",
          "RabbitMQ.Client": "6.2.2",
          "StackExchange.Redis": "2.2.88"
        },
        "runtime": {
          "Novanet.EventBus.dll": {}
        }
      },
      "NovanetCore.Business/1.0.0": {
        "dependencies": {
          "NovanetCore.ValueObject": "1.0.0"
        },
        "runtime": {
          "NovanetCore.Business.dll": {}
        }
      },
      "NovanetCore.ValueObject/1.0.0": {
        "dependencies": {
          "Novanet.Core": "1.0.0"
        },
        "runtime": {
          "NovanetCore.ValueObject.dll": {}
        }
      }
    }
  },
  "libraries": {
    "Service.Display/1.0.0": {
      "type": "project",
      "serviceable": false,
      "sha512": ""
    },
    "AioCore.Mongo.Driver/1.2.4": {
      "type": "package",
      "serviceable": true,
      "sha512": "sha512-t0Q1Ddon1fWUDkswdCNMw22LdxaAhaCe4ZpFgF3mrHp7Jv29dNZDoEAmTz1LI+kXS4GhBu7WK5hzALXrGyEWPQ==",
      "path": "aiocore.mongo.driver/1.2.4",
      "hashPath": "aiocore.mongo.driver.1.2.4.nupkg.sha512"
    },
    "AutoMapper/11.0.0": {
      "type": "package",
      "serviceable": true,
      "sha512": "sha512-+596AnKykYCk9RxXCEF4GYuapSebQtFVvIA1oVG1rrRkCLAC7AkWehJ0brCfYUbdDW3v1H/p0W3hob7JoXGjMw==",
      "path": "automapper/11.0.0",
      "hashPath": "automapper.11.0.0.nupkg.sha512"
    },
    "Dapper/2.0.123": {
      "type": "package",
      "serviceable": true,
      "sha512": "sha512-RDFF4rBLLmbpi6pwkY7q/M6UXHRJEOerplDGE5jwEkP/JGJnBauAClYavNKJPW1yOTWRPIyfj4is3EaJxQXILQ==",
      "path": "dapper/2.0.123",
      "hashPath": "dapper.2.0.123.nupkg.sha512"
    },
    "DnsClient/1.6.0": {
      "type": "package",
      "serviceable": true,
      "sha512": "sha512-kVd3IxAs5EQZSKTQhMUaJmuOQ1n2VWKExatdqNszsxxKzTB+Toaxx3M1DsN3yKfHloMXPmt6fgfcOqRwKheoUQ==",
      "path": "dnsclient/1.6.0",
      "hashPath": "dnsclient.1.6.0.nupkg.sha512"
    },
    "FastMember/1.5.0": {
      "type": "package",
      "serviceable": true,
      "sha512": "sha512-Db80coUbys8VgmcrR9mxUR+EInTpweoLM0GFJXIBuj8+PTgqV+ygq+EOM3HME83tob1+RR9XlBcEkpfFyypdHg==",
      "path": "fastmember/1.5.0",
      "hashPath": "fastmember.1.5.0.nupkg.sha512"
    },
    "FluentValidation/10.3.6": {
      "type": "package",
      "serviceable": true,
      "sha512": "sha512-iMd370ZDx6ydm8t7bIFdRbSKX0e42lpvCtifUSbTSXOk5iKjmgl7HU0PXBhIWQAyIRi3gCwfMI9luj8H6K+byw==",
      "path": "fluentvalidation/10.3.6",
      "hashPath": "fluentvalidation.10.3.6.nupkg.sha512"
    },
    "FluentValidation.AspNetCore/10.3.6": {
      "type": "package",
      "serviceable": true,
      "sha512": "sha512-xUgEjm+aqQPiVyZHmIq1HCShjlu17Rm1iV6yuL9CFWAl9YPvMxJL7vB+A1CqFUeWsx3LH8fM8ivA/5q5jPmcJg==",
      "path": "fluentvalidation.aspnetcore/10.3.6",
      "hashPath": "fluentvalidation.aspnetcore.10.3.6.nupkg.sha512"
    },
    "FluentValidation.DependencyInjectionExtensions/10.3.6": {
      "type": "package",
      "serviceable": true,
      "sha512": "sha512-yMwmbr+sHP/VLRQPTBVcgbJmtP5PGmxzNsqVX7FccDRwDB2edP8XsXWLNTZ4UwrslU1qQUD07BNQLDh7WXzpNw==",
      "path": "fluentvalidation.dependencyinjectionextensions/10.3.6",
      "hashPath": "fluentvalidation.dependencyinjectionextensions.10.3.6.nupkg.sha512"
    },
    "Hangfire.AspNetCore/1.8.0-beta4": {
      "type": "package",
      "serviceable": true,
      "sha512": "sha512-dVTfGC2v1DHTPELnk+k2SoqIDd/t7ueq2UB/5QU2tXzBOUwGwXNtqJ4aBP/oVj/xNAVq6217BcavQKLWHlNPWQ==",
      "path": "hangfire.aspnetcore/1.8.0-beta4",
      "hashPath": "hangfire.aspnetcore.1.8.0-beta4.nupkg.sha512"
    },
    "Hangfire.Core/1.8.0-beta4": {
      "type": "package",
      "serviceable": true,
      "sha512": "sha512-vt6OmIHOtEFTg0DqDdrilBu42ypvG0azXLKl2aQFwAbzoz7x/Syi8nOH2dU4DFdFaESeXxXb06YwRSHpox+wfw==",
      "path": "hangfire.core/1.8.0-beta4",
      "hashPath": "hangfire.core.1.8.0-beta4.nupkg.sha512"
    },
    "Hangfire.Dashboard.Basic.Authentication/5.0.0": {
      "type": "package",
      "serviceable": true,
      "sha512": "sha512-yB+3BnV4i15mDBxinpCzUAO15Ks6wme8tGotDb1cnxrcd1EDGtQ4MFkidXMVolAiMgc3uL+nYUu6kIMwl9u5Bg==",
      "path": "hangfire.dashboard.basic.authentication/5.0.0",
      "hashPath": "hangfire.dashboard.basic.authentication.5.0.0.nupkg.sha512"
    },
    "Hangfire.SqlServer/1.8.0-beta4": {
      "type": "package",
      "serviceable": true,
      "sha512": "sha512-x/vsqOPYPIttHLHDNW5O+lNZlK1pk5xWjwMncLoLHnpEcTZMfb/y3CzYiCBg1JhnoWqmX/OqAKtEVBCbhAbO/g==",
      "path": "hangfire.sqlserver/1.8.0-beta4",
      "hashPath": "hangfire.sqlserver.1.8.0-beta4.nupkg.sha512"
    },
    "Humanizer.Core/2.14.1": {
      "type": "package",
      "serviceable": true,
      "sha512": "sha512-lQKvtaTDOXnoVJ20ibTuSIOf2i0uO0MPbDhd1jm238I+U/2ZnRENj0cktKZhtchBMtCUSRQ5v4xBCUbKNmyVMw==",
      "path": "humanizer.core/2.14.1",
      "hashPath": "humanizer.core.2.14.1.nupkg.sha512"
    },
    "MailKit/3.2.0": {
      "type": "package",
      "serviceable": true,
      "sha512": "sha512-5MTpTqmjqT7HPvYbP3HozRZMth5vSaT0ReN0iM3rAM4CgLI/R1qqtLDDNWGnFFIlcNzeJkZQRJJMkv8cgzWBbA==",
      "path": "mailkit/3.2.0",
      "hashPath": "mailkit.3.2.0.nupkg.sha512"
    },
    "MediatR/10.0.1": {
      "type": "package",
      "serviceable": true,
      "sha512": "sha512-vnjbk4giDJzJelh34Ygt0eorApCKrRFB7j0pauFPY1oxfO3cEZ7FugBrIOjCM76SDGTOmPFfbfmVnz1t3iFrGA==",
      "path": "mediatr/10.0.1",
      "hashPath": "mediatr.10.0.1.nupkg.sha512"
    },
    "MediatR.Contracts/1.0.1": {
      "type": "package",
      "serviceable": true,
      "sha512": "sha512-NsRvOxthhkYml4DcBMyJsmym8C4MchioH7wxKVPEg7plFj9Euh/i4IcmZ3Gvgx6+K8obeuhPeJdoBl56wnuo3A==",
      "path": "mediatr.contracts/1.0.1",
      "hashPath": "mediatr.contracts.1.0.1.nupkg.sha512"
    },
    "MediatR.Extensions.Microsoft.DependencyInjection/10.0.1": {
      "type": "package",
      "serviceable": true,
      "sha512": "sha512-mYdfMvpkahCAj4tRfBoeMlUBZa2WthaONdQ4y5TtIyxcZYb5e7AE7c1eITTZVWcQhguxvD8AdExdaiAW6RhrVA==",
      "path": "mediatr.extensions.microsoft.dependencyinjection/10.0.1",
      "hashPath": "mediatr.extensions.microsoft.dependencyinjection.10.0.1.nupkg.sha512"
    },
    "Microsoft.AspNetCore.Authentication.JwtBearer/6.0.1": {
      "type": "package",
      "serviceable": true,
      "sha512": "sha512-5LDZ36RYl/31dRl807Ad1WV3GwaYprYyPu6+pjTkjpjsv/e2wIs7/VMtcp04RKIjO9oANcvCahZWX1zpH2+tHg==",
      "path": "microsoft.aspnetcore.authentication.jwtbearer/6.0.1",
      "hashPath": "microsoft.aspnetcore.authentication.jwtbearer.6.0.1.nupkg.sha512"
    },
    "Microsoft.AspNetCore.Http/2.2.2": {
      "type": "package",
      "serviceable": true,
      "sha512": "sha512-BAibpoItxI5puk7YJbIGj95arZueM8B8M5xT1fXBn3hb3L2G3ucrZcYXv1gXdaroLbntUs8qeV8iuBrpjQsrKw==",
      "path": "microsoft.aspnetcore.http/2.2.2",
      "hashPath": "microsoft.aspnetcore.http.2.2.2.nupkg.sha512"
    },
    "Microsoft.AspNetCore.Http.Abstractions/2.2.0": {
      "type": "package",
      "serviceable": true,
      "sha512": "sha512-Nxs7Z1q3f1STfLYKJSVXCs1iBl+Ya6E8o4Oy1bCxJ/rNI44E/0f6tbsrVqAWfB7jlnJfyaAtIalBVxPKUPQb4Q==",
      "path": "microsoft.aspnetcore.http.abstractions/2.2.0",
      "hashPath": "microsoft.aspnetcore.http.abstractions.2.2.0.nupkg.sha512"
    },
    "Microsoft.AspNetCore.Http.Features/2.2.0": {
      "type": "package",
      "serviceable": true,
      "sha512": "sha512-ziFz5zH8f33En4dX81LW84I6XrYXKf9jg6aM39cM+LffN9KJahViKZ61dGMSO2gd3e+qe5yBRwsesvyqlZaSMg==",
      "path": "microsoft.aspnetcore.http.features/2.2.0",
      "hashPath": "microsoft.aspnetcore.http.features.2.2.0.nupkg.sha512"
    },
    "Microsoft.AspNetCore.Mvc.Versioning/5.0.0": {
      "type": "package",
      "serviceable": true,
      "sha512": "sha512-mN9IARvNpHMBD2/oGmp5Bxp1Dg45Hfcp+LWaAyTtL2HisWLMOIcf0Ox1qW9IvCvdbHM+2A9dWEInhiqBsNxsJA==",
      "path": "microsoft.aspnetcore.mvc.versioning/5.0.0",
      "hashPath": "microsoft.aspnetcore.mvc.versioning.5.0.0.nupkg.sha512"
    },
    "Microsoft.AspNetCore.Mvc.Versioning.ApiExplorer/5.0.0": {
      "type": "package",
      "serviceable": true,
      "sha512": "sha512-GZH7F1iDtJKw23qkqQaAnBh9Rw+GVUq5SK0ldfAqMh+2syFRtzPkvQUl0V+qe2wuP0QRr1zG82G812ZN8AU6ig==",
      "path": "microsoft.aspnetcore.mvc.versioning.apiexplorer/5.0.0",
      "hashPath": "microsoft.aspnetcore.mvc.versioning.apiexplorer.5.0.0.nupkg.sha512"
    },
    "Microsoft.AspNetCore.WebUtilities/2.2.0": {
      "type": "package",
      "serviceable": true,
      "sha512": "sha512-9ErxAAKaDzxXASB/b5uLEkLgUWv1QbeVxyJYEHQwMaxXOeFFVkQxiq8RyfVcifLU7NR0QY0p3acqx4ZpYfhHDg==",
      "path": "microsoft.aspnetcore.webutilities/2.2.0",
      "hashPath": "microsoft.aspnetcore.webutilities.2.2.0.nupkg.sha512"
    },
    "Microsoft.CSharp/4.7.0": {
      "type": "package",
      "serviceable": true,
      "sha512": "sha512-pTj+D3uJWyN3My70i2Hqo+OXixq3Os2D1nJ2x92FFo6sk8fYS1m1WLNTs0Dc1uPaViH0YvEEwvzddQ7y4rhXmA==",
      "path": "microsoft.csharp/4.7.0",
      "hashPath": "microsoft.csharp.4.7.0.nupkg.sha512"
    },
    "Microsoft.Data.SqlClient/2.1.4": {
      "type": "package",
      "serviceable": true,
      "sha512": "sha512-cDcKBTKILdRuAzJjbgXwGcUQXzMue+SG02kD4tZTXXfoz4ALrGLpCnA5k9khw3fnAMlMnRzLIGuvRdJurqmESA==",
      "path": "microsoft.data.sqlclient/2.1.4",
      "hashPath": "microsoft.data.sqlclient.2.1.4.nupkg.sha512"
    },
    "Microsoft.Data.SqlClient.SNI.runtime/2.1.1": {
      "type": "package",
      "serviceable": true,
      "sha512": "sha512-JwGDWkyZgm7SATJmFLfT2G4teimvNbNtq3lsS9a5DzvhEZnQrZjZhevCU0vdx8MjheLHoG5vocuO03QtioFQxQ==",
      "path": "microsoft.data.sqlclient.sni.runtime/2.1.1",
      "hashPath": "microsoft.data.sqlclient.sni.runtime.2.1.1.nupkg.sha512"
    },
    "Microsoft.EntityFrameworkCore/6.0.1": {
      "type": "package",
      "serviceable": true,
      "sha512": "sha512-UmZBVaRbOgtbYkp4x8W9j8HBd7ywzPRPj5StSiqFt/nsH6nOf1eQmHFfjIRb70cxsuC0NbkFBAAoUHFRCscCKA==",
      "path": "microsoft.entityframeworkcore/6.0.1",
      "hashPath": "microsoft.entityframeworkcore.6.0.1.nupkg.sha512"
    },
    "Microsoft.EntityFrameworkCore.Abstractions/6.0.1": {
      "type": "package",
      "serviceable": true,
      "sha512": "sha512-JM55+h9Ln9MZAFikvmgrmDoIt4Zz9ZWZpNrmyi9QTVuJMzQQOEnJkISKp5Ebvpno6Jt00Gkrfmvu8K5mFPO+dA==",
      "path": "microsoft.entityframeworkcore.abstractions/6.0.1",
      "hashPath": "microsoft.entityframeworkcore.abstractions.6.0.1.nupkg.sha512"
    },
    "Microsoft.EntityFrameworkCore.Analyzers/6.0.1": {
      "type": "package",
      "serviceable": true,
      "sha512": "sha512-fp8VTLv1up7EGAa9Daf+IErpq63hiKtWeApoxgnkMjURdjkbVcwaA4AozwHjEqVVQugGqwroHes4HVp24cDDAw==",
      "path": "microsoft.entityframeworkcore.analyzers/6.0.1",
      "hashPath": "microsoft.entityframeworkcore.analyzers.6.0.1.nupkg.sha512"
    },
    "Microsoft.EntityFrameworkCore.Relational/6.0.1": {
      "type": "package",
      "serviceable": true,
      "sha512": "sha512-abaCEEeeB0xlMYDD+m9kmhQh5aipJ5s3UbyQVBfMaZeCiZHXST0eWuJRX63E3e7K/mju5WEHiybV/hizng7q/w==",
      "path": "microsoft.entityframeworkcore.relational/6.0.1",
      "hashPath": "microsoft.entityframeworkcore.relational.6.0.1.nupkg.sha512"
    },
    "Microsoft.EntityFrameworkCore.SqlServer/6.0.1": {
      "type": "package",
      "serviceable": true,
      "sha512": "sha512-bXmFi9F7GHT0dMUvuT2b5Pf8TtPnU6sQxZ5pvf3UElva+cD0YqsGI5bJGTx21pcMdw3bVhqzCLrpfA/zgHFyMw==",
      "path": "microsoft.entityframeworkcore.sqlserver/6.0.1",
      "hashPath": "microsoft.entityframeworkcore.sqlserver.6.0.1.nupkg.sha512"
    },
    "Microsoft.Extensions.ApiDescription.Server/3.0.0": {
      "type": "package",
      "serviceable": true,
      "sha512": "sha512-LH4OE/76F6sOCslif7+Xh3fS/wUUrE5ryeXAMcoCnuwOQGT5Smw0p57IgDh/pHgHaGz/e+AmEQb7pRgb++wt0w==",
      "path": "microsoft.extensions.apidescription.server/3.0.0",
      "hashPath": "microsoft.extensions.apidescription.server.3.0.0.nupkg.sha512"
    },
    "Microsoft.Extensions.Caching.Abstractions/6.0.0": {
      "type": "package",
      "serviceable": true,
      "sha512": "sha512-bcz5sSFJbganH0+YrfvIjJDIcKNW7TL07C4d1eTmXy/wOt52iz4LVogJb6pazs7W0+74j0YpXFErvp++Aq5Bsw==",
      "path": "microsoft.extensions.caching.abstractions/6.0.0",
      "hashPath": "microsoft.extensions.caching.abstractions.6.0.0.nupkg.sha512"
    },
    "Microsoft.Extensions.Caching.Memory/6.0.0": {
      "type": "package",
      "serviceable": true,
      "sha512": "sha512-Ve3BlCzhAlVp5IgO3+8dacAhZk1A0GlIlFNkAcfR2TfAibLKWIt5DhVJZfu4YtW+XZ89OjYf/agMcgjDtPxdGA==",
      "path": "microsoft.extensions.caching.memory/6.0.0",
      "hashPath": "microsoft.extensions.caching.memory.6.0.0.nupkg.sha512"
    },
    "Microsoft.Extensions.Configuration/2.0.0": {
      "type": "package",
      "serviceable": true,
      "sha512": "sha512-SsI4RqI8EH00+cYO96tbftlh87sNUv1eeyuBU1XZdQkG0RrHAOjWgl7P0FoLeTSMXJpOnfweeOWj2d1/5H3FxA==",
      "path": "microsoft.extensions.configuration/2.0.0",
      "hashPath": "microsoft.extensions.configuration.2.0.0.nupkg.sha512"
    },
    "Microsoft.Extensions.Configuration.Abstractions/6.0.0": {
      "type": "package",
      "serviceable": true,
      "sha512": "sha512-qWzV9o+ZRWq+pGm+1dF+R7qTgTYoXvbyowRoBxQJGfqTpqDun2eteerjRQhq5PQ/14S+lqto3Ft4gYaRyl4rdQ==",
      "path": "microsoft.extensions.configuration.abstractions/6.0.0",
      "hashPath": "microsoft.extensions.configuration.abstractions.6.0.0.nupkg.sha512"
    },
    "Microsoft.Extensions.Configuration.Binder/2.0.0": {
      "type": "package",
      "serviceable": true,
      "sha512": "sha512-IznHHzGUtrdpuQqIUdmzF6TYPcsYHONhHh3o9dGp39sX/9Zfmt476UnhvU0UhXgJnXXAikt/MpN6AuSLCCMdEQ==",
      "path": "microsoft.extensions.configuration.binder/2.0.0",
      "hashPath": "microsoft.extensions.configuration.binder.2.0.0.nupkg.sha512"
    },
    "Microsoft.Extensions.DependencyInjection/6.0.0": {
      "type": "package",
      "serviceable": true,
      "sha512": "sha512-k6PWQMuoBDGGHOQTtyois2u4AwyVcIwL2LaSLlTZQm2CYcJ1pxbt6jfAnpWmzENA/wfrYRI/X9DTLoUkE4AsLw==",
      "path": "microsoft.extensions.dependencyinjection/6.0.0",
      "hashPath": "microsoft.extensions.dependencyinjection.6.0.0.nupkg.sha512"
    },
    "Microsoft.Extensions.DependencyInjection.Abstractions/6.0.0": {
      "type": "package",
      "serviceable": true,
      "sha512": "sha512-xlzi2IYREJH3/m6+lUrQlujzX8wDitm4QGnUu6kUXTQAWPuZY8i+ticFJbzfqaetLA6KR/rO6Ew/HuYD+bxifg==",
      "path": "microsoft.extensions.dependencyinjection.abstractions/6.0.0",
      "hashPath": "microsoft.extensions.dependencyinjection.abstractions.6.0.0.nupkg.sha512"
    },
    "Microsoft.Extensions.DependencyModel/3.0.0": {
      "type": "package",
      "serviceable": true,
      "sha512": "sha512-Iaectmzg9Dc4ZbKX/FurrRjgO/I8rTumL5UU+Uube6vZuGetcnXoIgTA94RthFWePhdMVm8MMhVFJZdbzMsdyQ==",
      "path": "microsoft.extensions.dependencymodel/3.0.0",
      "hashPath": "microsoft.extensions.dependencymodel.3.0.0.nupkg.sha512"
    },
    "Microsoft.Extensions.FileProviders.Abstractions/3.1.8": {
      "type": "package",
      "serviceable": true,
      "sha512": "sha512-U7ffyzrPfRDH5K3h/mBpqJVoHbppw1kc1KyHZcZeDR7b1A0FRaqMSiizGpN9IGwWs9BuN7oXIKFyviuSGBjHtQ==",
      "path": "microsoft.extensions.fileproviders.abstractions/3.1.8",
      "hashPath": "microsoft.extensions.fileproviders.abstractions.3.1.8.nupkg.sha512"
    },
    "Microsoft.Extensions.Hosting.Abstractions/3.1.8": {
      "type": "package",
      "serviceable": true,
      "sha512": "sha512-7ZJUKwPipkDvuv2KJPZ3r01wp2AWNMiYH+61i0dL89F7QICknjKpWgLKLpTSUYFgl77S3b4264I6i4HzDdrb2A==",
      "path": "microsoft.extensions.hosting.abstractions/3.1.8",
      "hashPath": "microsoft.extensions.hosting.abstractions.3.1.8.nupkg.sha512"
    },
    "Microsoft.Extensions.Logging/6.0.0": {
      "type": "package",
      "serviceable": true,
      "sha512": "sha512-eIbyj40QDg1NDz0HBW0S5f3wrLVnKWnDJ/JtZ+yJDFnDj90VoPuoPmFkeaXrtu+0cKm5GRAwoDf+dBWXK0TUdg==",
      "path": "microsoft.extensions.logging/6.0.0",
      "hashPath": "microsoft.extensions.logging.6.0.0.nupkg.sha512"
    },
    "Microsoft.Extensions.Logging.Abstractions/6.0.0": {
      "type": "package",
      "serviceable": true,
      "sha512": "sha512-/HggWBbTwy8TgebGSX5DBZ24ndhzi93sHUBDvP1IxbZD7FDokYzdAr6+vbWGjw2XAfR2EJ1sfKUotpjHnFWPxA==",
      "path": "microsoft.extensions.logging.abstractions/6.0.0",
      "hashPath": "microsoft.extensions.logging.abstractions.6.0.0.nupkg.sha512"
    },
    "Microsoft.Extensions.ObjectPool/2.2.0": {
      "type": "package",
      "serviceable": true,
      "sha512": "sha512-gA8H7uQOnM5gb+L0uTNjViHYr+hRDqCdfugheGo/MxQnuHzmhhzCBTIPm19qL1z1Xe0NEMabfcOBGv9QghlZ8g==",
      "path": "microsoft.extensions.objectpool/2.2.0",
      "hashPath": "microsoft.extensions.objectpool.2.2.0.nupkg.sha512"
    },
    "Microsoft.Extensions.Options/6.0.0": {
      "type": "package",
      "serviceable": true,
      "sha512": "sha512-dzXN0+V1AyjOe2xcJ86Qbo233KHuLEY0njf/P2Kw8SfJU+d45HNS2ctJdnEnrWbM9Ye2eFgaC5Mj9otRMU6IsQ==",
      "path": "microsoft.extensions.options/6.0.0",
      "hashPath": "microsoft.extensions.options.6.0.0.nupkg.sha512"
    },
    "Microsoft.Extensions.Options.ConfigurationExtensions/2.0.0": {
      "type": "package",
      "serviceable": true,
      "sha512": "sha512-Y/lGICwO27fCkQRK3tZseVzFjZaxfGmui990E67sB4MuiPzdJHnJDS/BeYWrHShSSBgCl4KyKRx4ux686fftPg==",
      "path": "microsoft.extensions.options.configurationextensions/2.0.0",
      "hashPath": "microsoft.extensions.options.configurationextensions.2.0.0.nupkg.sha512"
    },
    "Microsoft.Extensions.Primitives/6.0.0": {
      "type": "package",
      "serviceable": true,
      "sha512": "sha512-9+PnzmQFfEFNR9J2aDTfJGGupShHjOuGw4VUv+JB044biSHrnmCIMD+mJHmb2H7YryrfBEXDurxQ47gJZdCKNQ==",
      "path": "microsoft.extensions.primitives/6.0.0",
      "hashPath": "microsoft.extensions.primitives.6.0.0.nupkg.sha512"
    },
    "Microsoft.Identity.Client/4.21.1": {
      "type": "package",
      "serviceable": true,
      "sha512": "sha512-vycgk7S/HAbHaUaK4Tid1fsWHsXdFRRP2KavAIOHCVV27zvuQfYAjXmMvctuuF4egydSumG58CwPZob3gWeYgQ==",
      "path": "microsoft.identity.client/4.21.1",
      "hashPath": "microsoft.identity.client.4.21.1.nupkg.sha512"
    },
    "Microsoft.IdentityModel.JsonWebTokens/6.10.0": {
      "type": "package",
      "serviceable": true,
      "sha512": "sha512-0qjS31rN1MQTc46tAYbzmMTSRfdV5ndZxSjYxIGqKSidd4wpNJfNII/pdhU5Fx8olarQoKL9lqqYw4yNOIwT0Q==",
      "path": "microsoft.identitymodel.jsonwebtokens/6.10.0",
      "hashPath": "microsoft.identitymodel.jsonwebtokens.6.10.0.nupkg.sha512"
    },
    "Microsoft.IdentityModel.Logging/6.10.0": {
      "type": "package",
      "serviceable": true,
      "sha512": "sha512-zbcwV6esnNzhZZ/VP87dji6VrUBLB5rxnZBkDMqNYpyG+nrBnBsbm4PUYLCBMUflHCM9EMLDG0rLnqqT+l0ldA==",
      "path": "microsoft.identitymodel.logging/6.10.0",
      "hashPath": "microsoft.identitymodel.logging.6.10.0.nupkg.sha512"
    },
    "Microsoft.IdentityModel.Protocols/6.10.0": {
      "type": "package",
      "serviceable": true,
      "sha512": "sha512-DFyXD0xylP+DknCT3hzJ7q/Q5qRNu0hO/gCU90O0ATdR0twZmlcuY9RNYaaDofXKVbzcShYNCFCGle2G/o8mkg==",
      "path": "microsoft.identitymodel.protocols/6.10.0",
      "hashPath": "microsoft.identitymodel.protocols.6.10.0.nupkg.sha512"
    },
    "Microsoft.IdentityModel.Protocols.OpenIdConnect/6.10.0": {
      "type": "package",
      "serviceable": true,
      "sha512": "sha512-LVvMXAWPbPeEWTylDrxunlHH2wFyE4Mv0L4gZrJHC4HTESbWHquKZb/y/S8jgiQEDycOP0PDQvbG4RR/tr2TVQ==",
      "path": "microsoft.identitymodel.protocols.openidconnect/6.10.0",
      "hashPath": "microsoft.identitymodel.protocols.openidconnect.6.10.0.nupkg.sha512"
    },
    "Microsoft.IdentityModel.Tokens/6.10.0": {
      "type": "package",
      "serviceable": true,
      "sha512": "sha512-qbf1NslutDB4oLrriYTJpy7oB1pbh2ej2lEHd2IPDQH9C74ysOdhU5wAC7KoXblldbo7YsNR2QYFOqQM/b0Rsg==",
      "path": "microsoft.identitymodel.tokens/6.10.0",
      "hashPath": "microsoft.identitymodel.tokens.6.10.0.nupkg.sha512"
    },
    "Microsoft.Maui.Graphics/6.0.300-rc.1.1215": {
      "type": "package",
      "serviceable": true,
      "sha512": "sha512-bcvetkzKpFPRXywDXia48vq50rP5wxayEBNXl3Tn3a6XaPsiigBLCU8zmSLnUJkI4olFdriEXl6egdsn3mN5UQ==",
      "path": "microsoft.maui.graphics/6.0.300-rc.1.1215",
      "hashPath": "microsoft.maui.graphics.6.0.300-rc.1.1215.nupkg.sha512"
    },
    "Microsoft.Maui.Graphics.Skia/6.0.300-rc.1.1215": {
      "type": "package",
      "serviceable": true,
      "sha512": "sha512-lx9z82fKYIClE2VUbSDfDvHsmCkAmiE8SN6mTfVFtmqn2s+li1cDidz8ENp89jUV3e5LafobfF4krU/YuK0wRg==",
      "path": "microsoft.maui.graphics.skia/6.0.300-rc.1.1215",
      "hashPath": "microsoft.maui.graphics.skia.6.0.300-rc.1.1215.nupkg.sha512"
    },
    "Microsoft.Net.Http.Headers/2.2.0": {
      "type": "package",
      "serviceable": true,
      "sha512": "sha512-iZNkjYqlo8sIOI0bQfpsSoMTmB/kyvmV2h225ihyZT33aTp48ZpF6qYnXxzSXmHt8DpBAwBTX+1s1UFLbYfZKg==",
      "path": "microsoft.net.http.headers/2.2.0",
      "hashPath": "microsoft.net.http.headers.2.2.0.nupkg.sha512"
    },
    "Microsoft.NETCore.Platforms/5.0.0": {
      "type": "package",
      "serviceable": true,
      "sha512": "sha512-VyPlqzH2wavqquTcYpkIIAQ6WdenuKoFN0BdYBbCWsclXacSOHNQn66Gt4z5NBqEYW0FAPm5rlvki9ZiCij5xQ==",
      "path": "microsoft.netcore.platforms/5.0.0",
      "hashPath": "microsoft.netcore.platforms.5.0.0.nupkg.sha512"
    },
    "Microsoft.OpenApi/1.2.3": {
      "type": "package",
      "serviceable": true,
      "sha512": "sha512-Nug3rO+7Kl5/SBAadzSMAVgqDlfGjJZ0GenQrLywJ84XGKO0uRqkunz5Wyl0SDwcR71bAATXvSdbdzPrYRYKGw==",
      "path": "microsoft.openapi/1.2.3",
      "hashPath": "microsoft.openapi.1.2.3.nupkg.sha512"
    },
    "Microsoft.Win32.Registry/5.0.0": {
      "type": "package",
      "serviceable": true,
      "sha512": "sha512-dDoKi0PnDz31yAyETfRntsLArTlVAVzUzCIvvEDsDsucrl33Dl8pIJG06ePTJTI3tGpeyHS9Cq7Foc/s4EeKcg==",
      "path": "microsoft.win32.registry/5.0.0",
      "hashPath": "microsoft.win32.registry.5.0.0.nupkg.sha512"
    },
    "Microsoft.Win32.SystemEvents/5.0.0": {
      "type": "package",
      "serviceable": true,
      "sha512": "sha512-Bh6blKG8VAKvXiLe2L+sEsn62nc1Ij34MrNxepD2OCrS5cpCwQa9MeLyhVQPQ/R4Wlzwuy6wMK8hLb11QPDRsQ==",
      "path": "microsoft.win32.systemevents/5.0.0",
      "hashPath": "microsoft.win32.systemevents.5.0.0.nupkg.sha512"
    },
    "MimeKit/3.2.0": {
      "type": "package",
      "serviceable": true,
      "sha512": "sha512-l9YHMBhBUwY7qQHUp8fw0EvjcbmhN4Iggz6MdjqIShBf42+0nJTa5gu0kuupCOPuiARc9ZaS9c9f0gKz4OnxKw==",
      "path": "mimekit/3.2.0",
      "hashPath": "mimekit.3.2.0.nupkg.sha512"
    },
    "MimeTypeMapOfficial/1.0.17": {
      "type": "package",
      "serviceable": true,
      "sha512": "sha512-f6DSQSYTckCjq1ifRj0fSLiEmDv+22uo4+JjTeb3MNZK3Ban1XLjA+bTQtD+/7x2NBEAGzBLYIRpS1IU2OgIAw==",
      "path": "mimetypemapofficial/1.0.17",
      "hashPath": "mimetypemapofficial.1.0.17.nupkg.sha512"
    },
    "MongoDB.Bson/2.15.0": {
      "type": "package",
      "serviceable": true,
      "sha512": "sha512-5uPSADVLydGJ4CbmjrsQn7v3NugSdx6htJ4cMNbo8youlfBa5v6YbEqztbipnl+dT1L/YBkJKZ1DDp6LWl0Hqw==",
      "path": "mongodb.bson/2.15.0",
      "hashPath": "mongodb.bson.2.15.0.nupkg.sha512"
    },
    "MongoDB.Driver/2.15.0": {
      "type": "package",
      "serviceable": true,
      "sha512": "sha512-MaDExORt2JLBHFlG3dJZIdQlZsfK8YjfEbXJECqAU/Ez8BwbJwjHS0AjOBQZPj3U4UDU5pnGYiQn4P0dM9DnMw==",
      "path": "mongodb.driver/2.15.0",
      "hashPath": "mongodb.driver.2.15.0.nupkg.sha512"
    },
    "MongoDB.Driver.Core/2.15.0": {
      "type": "package",
      "serviceable": true,
      "sha512": "sha512-oEfGhyxHDmH3KhRHPZqVEYSfLqFwOLrY5zMszbELKNxrgkJj82MNJ8AzGVOsayaxtrQqqcAGfyQK8Ecc1yoc0Q==",
      "path": "mongodb.driver.core/2.15.0",
      "hashPath": "mongodb.driver.core.2.15.0.nupkg.sha512"
    },
    "MongoDB.Libmongocrypt/1.3.0": {
      "type": "package",
      "serviceable": true,
      "sha512": "sha512-BAvqY/otOsmAGTsmzIYXRFysvpu8X7rYkDzEBX4iBlrF57SB+fD5px9sCPR6sETgfZ6k98qUNS6go5wtY9WOBA==",
      "path": "mongodb.libmongocrypt/1.3.0",
      "hashPath": "mongodb.libmongocrypt.1.3.0.nupkg.sha512"
    },
    "NeoSmart.AsyncLock/3.2.1": {
      "type": "package",
      "serviceable": true,
      "sha512": "sha512-bYIpqtgA5oZWdSgcsGA4XLkKVYuz6Qc+aEVfTYPOIX2rSFbb8NFxHcBb5V62qio8Q6Au/Xn+7ci86VW9vqIk0w==",
      "path": "neosmart.asynclock/3.2.1",
      "hashPath": "neosmart.asynclock.3.2.1.nupkg.sha512"
    },
    "Newtonsoft.Json/11.0.1": {
      "type": "package",
      "serviceable": true,
      "sha512": "sha512-pNN4l+J6LlpIvHOeNdXlwxv39NPJ2B5klz+Rd2UQZIx30Squ5oND1Yy3wEAUoKn0GPUj6Yxt9lxlYWQqfZcvKg==",
      "path": "newtonsoft.json/11.0.1",
      "hashPath": "newtonsoft.json.11.0.1.nupkg.sha512"
    },
    "NIdenticon/1.4.0": {
      "type": "package",
      "serviceable": true,
      "sha512": "sha512-u+GtXSrikcdjdBqiNjyrHOLpYY+AlRnRhIAsZaFPIhZwNowZ8lceZHRvu0aMtyc/emPx4il6hg7hmXO7wU+rVQ==",
      "path": "nidenticon/1.4.0",
      "hashPath": "nidenticon.1.4.0.nupkg.sha512"
    },
    "Pipelines.Sockets.Unofficial/2.2.0": {
      "type": "package",
      "serviceable": true,
      "sha512": "sha512-7hzHplEIVOGBl5zOQZGX/DiJDHjq+RVRVrYgDiqXb6RriqWAdacXxp+XO9WSrATCEXyNOUOQg9aqQArsjase/A==",
      "path": "pipelines.sockets.unofficial/2.2.0",
      "hashPath": "pipelines.sockets.unofficial.2.2.0.nupkg.sha512"
    },
    "Polly/7.2.3": {
      "type": "package",
      "serviceable": true,
      "sha512": "sha512-DeCY0OFbNdNxsjntr1gTXHJ5pKUwYzp04Er2LLeN3g6pWhffsGuKVfMBLe1lw7x76HrPkLxKEFxBlpRxS2nDEQ==",
      "path": "polly/7.2.3",
      "hashPath": "polly.7.2.3.nupkg.sha512"
    },
    "Portable.BouncyCastle/1.9.0": {
      "type": "package",
      "serviceable": true,
      "sha512": "sha512-eZZBCABzVOek+id9Xy04HhmgykF0wZg9wpByzrWN7q8qEI0Qen9b7tfd7w8VA3dOeesumMG7C5ZPy0jk7PSRHw==",
      "path": "portable.bouncycastle/1.9.0",
      "hashPath": "portable.bouncycastle.1.9.0.nupkg.sha512"
    },
    "RabbitMQ.Client/6.2.2": {
      "type": "package",
      "serviceable": true,
      "sha512": "sha512-+tJSgE+rQXgLvOxWvOxdZ0+No1EMa86+puZuNlCb4cNryHw2PY2Xiw/y2dz/WWdeJQp74Y2UnNXPkuLiYpvn+A==",
      "path": "rabbitmq.client/6.2.2",
      "hashPath": "rabbitmq.client.6.2.2.nupkg.sha512"
    },
    "runtime.native.System.Data.SqlClient.sni/4.4.0": {
      "type": "package",
      "serviceable": true,
      "sha512": "sha512-A8v6PGmk+UGbfWo5Ixup0lPM4swuSwOiayJExZwKIOjTlFFQIsu3QnDXECosBEyrWSPryxBVrdqtJyhK3BaupQ==",
      "path": "runtime.native.system.data.sqlclient.sni/4.4.0",
      "hashPath": "runtime.native.system.data.sqlclient.sni.4.4.0.nupkg.sha512"
    },
    "runtime.win-arm64.runtime.native.System.Data.SqlClient.sni/4.4.0": {
      "type": "package",
      "serviceable": true,
      "sha512": "sha512-LbrynESTp3bm5O/+jGL8v0Qg5SJlTV08lpIpFesXjF6uGNMWqFnUQbYBJwZTeua6E/Y7FIM1C54Ey1btLWupdg==",
      "path": "runtime.win-arm64.runtime.native.system.data.sqlclient.sni/4.4.0",
      "hashPath": "runtime.win-arm64.runtime.native.system.data.sqlclient.sni.4.4.0.nupkg.sha512"
    },
    "runtime.win-x64.runtime.native.System.Data.SqlClient.sni/4.4.0": {
      "type": "package",
      "serviceable": true,
      "sha512": "sha512-38ugOfkYJqJoX9g6EYRlZB5U2ZJH51UP8ptxZgdpS07FgOEToV+lS11ouNK2PM12Pr6X/PpT5jK82G3DwH/SxQ==",
      "path": "runtime.win-x64.runtime.native.system.data.sqlclient.sni/4.4.0",
      "hashPath": "runtime.win-x64.runtime.native.system.data.sqlclient.sni.4.4.0.nupkg.sha512"
    },
    "runtime.win-x86.runtime.native.System.Data.SqlClient.sni/4.4.0": {
      "type": "package",
      "serviceable": true,
      "sha512": "sha512-YhEdSQUsTx+C8m8Bw7ar5/VesXvCFMItyZF7G1AUY+OM0VPZUOeAVpJ4Wl6fydBGUYZxojTDR3I6Bj/+BPkJNA==",
      "path": "runtime.win-x86.runtime.native.system.data.sqlclient.sni/4.4.0",
      "hashPath": "runtime.win-x86.runtime.native.system.data.sqlclient.sni.4.4.0.nupkg.sha512"
    },
    "Scriban/5.4.0": {
      "type": "package",
      "serviceable": true,
      "sha512": "sha512-gx+ArfJeanLPO2b5mnSsK8FqgMvhrRqqOOisRPhofWU44qfuCQU4G0GJfJziauu4PLMdMg2ArnhD7CMHaFwzLQ==",
      "path": "scriban/5.4.0",
      "hashPath": "scriban.5.4.0.nupkg.sha512"
    },
    "Serilog/2.10.0": {
      "type": "package",
      "serviceable": true,
      "sha512": "sha512-+QX0hmf37a0/OZLxM3wL7V6/ADvC1XihXN4Kq/p6d8lCPfgkRdiuhbWlMaFjR9Av0dy5F0+MBeDmDdRZN/YwQA==",
      "path": "serilog/2.10.0",
      "hashPath": "serilog.2.10.0.nupkg.sha512"
    },
    "Serilog.AspNetCore/5.0.0": {
      "type": "package",
      "serviceable": true,
      "sha512": "sha512-/JO/txIxRR61x1UXQAgUzG2Sx05o1QHCkokVBWrKzmAoDu+p5EtCAj7L/TVVg7Ezhh3GPiZ0JI9OJCmRO9tSRw==",
      "path": "serilog.aspnetcore/5.0.0",
      "hashPath": "serilog.aspnetcore.5.0.0.nupkg.sha512"
    },
    "Serilog.Extensions.Hosting/4.2.0": {
      "type": "package",
      "serviceable": true,
      "sha512": "sha512-gT2keceCmPQR9EX0VpXQZvUgELdfE7yqJ7MOxBhm3WLCblcvRgswEOOTgok/DHObbM15A3V/DtF3VdVDQPIZzQ==",
      "path": "serilog.extensions.hosting/4.2.0",
      "hashPath": "serilog.extensions.hosting.4.2.0.nupkg.sha512"
    },
    "Serilog.Extensions.Logging/3.1.0": {
      "type": "package",
      "serviceable": true,
      "sha512": "sha512-IWfem7wfrFbB3iw1OikqPFNPEzfayvDuN4WP7Ue1AVFskalMByeWk3QbtUXQR34SBkv1EbZ3AySHda/ErDgpcg==",
      "path": "serilog.extensions.logging/3.1.0",
      "hashPath": "serilog.extensions.logging.3.1.0.nupkg.sha512"
    },
    "Serilog.Formatting.Compact/1.1.0": {
      "type": "package",
      "serviceable": true,
      "sha512": "sha512-pNroKVjo+rDqlxNG5PXkRLpfSCuDOBY0ri6jp9PLe505ljqwhwZz8ospy2vWhQlFu5GkIesh3FcDs4n7sWZODA==",
      "path": "serilog.formatting.compact/1.1.0",
      "hashPath": "serilog.formatting.compact.1.1.0.nupkg.sha512"
    },
    "Serilog.Settings.Configuration/3.3.0": {
      "type": "package",
      "serviceable": true,
      "sha512": "sha512-7GNudISZwqaT902hqEL2OFGTZeUFWfnrNLupJkOqeF41AR3GjcxX+Hwb30xb8gG2/CDXsCMVfF8o0+8KY0fJNg==",
      "path": "serilog.settings.configuration/3.3.0",
      "hashPath": "serilog.settings.configuration.3.3.0.nupkg.sha512"
    },
    "Serilog.Sinks.Console/4.0.1": {
      "type": "package",
      "serviceable": true,
      "sha512": "sha512-apLOvSJQLlIbKlbx+Y2UDHSP05kJsV7mou+fvJoRGs/iR+jC22r8cuFVMjjfVxz/AD4B2UCltFhE1naRLXwKNw==",
      "path": "serilog.sinks.console/4.0.1",
      "hashPath": "serilog.sinks.console.4.0.1.nupkg.sha512"
    },
    "Serilog.Sinks.Debug/2.0.0": {
      "type": "package",
      "serviceable": true,
      "sha512": "sha512-Y6g3OBJ4JzTyyw16fDqtFcQ41qQAydnEvEqmXjhwhgjsnG/FaJ8GUqF5ldsC/bVkK8KYmqrPhDO+tm4dF6xx4A==",
      "path": "serilog.sinks.debug/2.0.0",
      "hashPath": "serilog.sinks.debug.2.0.0.nupkg.sha512"
    },
    "Serilog.Sinks.File/5.0.0": {
      "type": "package",
      "serviceable": true,
      "sha512": "sha512-uwV5hdhWPwUH1szhO8PJpFiahqXmzPzJT/sOijH/kFgUx+cyoDTMM8MHD0adw9+Iem6itoibbUXHYslzXsLEAg==",
      "path": "serilog.sinks.file/5.0.0",
      "hashPath": "serilog.sinks.file.5.0.0.nupkg.sha512"
    },
    "SharpCompress/0.30.1": {
      "type": "package",
      "serviceable": true,
      "sha512": "sha512-XqD4TpfyYGa7QTPzaGlMVbcecKnXy4YmYLDWrU+JIj7IuRNl7DH2END+Ll7ekWIY8o3dAMWLFDE1xdhfIWD1nw==",
      "path": "sharpcompress/0.30.1",
      "hashPath": "sharpcompress.0.30.1.nupkg.sha512"
    },
    "SkiaSharp/2.88.0-preview.232": {
      "type": "package",
      "serviceable": true,
      "sha512": "sha512-/Z7+fXhAfEs6Md8wCbhbX77O7YH8fx+N0FfFRtU0hacKf0xKeMaM5tJ3soZn70+sGTySeRIPLqogBVTC8MTmtg==",
      "path": "skiasharp/2.88.0-preview.232",
      "hashPath": "skiasharp.2.88.0-preview.232.nupkg.sha512"
    },
    "SkiaSharp.NativeAssets.Linux/2.88.0-preview.232": {
      "type": "package",
      "serviceable": true,
      "sha512": "sha512-6VW9bUJcufbBXgtphDCEEaTFDJyyWGEaq7nl0vQMET0A9Kc30SlYVZdaIdcyGhIeQw+dWl5AFpadIdxMVSkY5g==",
      "path": "skiasharp.nativeassets.linux/2.88.0-preview.232",
      "hashPath": "skiasharp.nativeassets.linux.2.88.0-preview.232.nupkg.sha512"
    },
    "SkiaSharp.NativeAssets.Linux.NoDependencies/2.88.0-preview.232": {
      "type": "package",
      "serviceable": true,
      "sha512": "sha512-uGCA8NcVCL+ckOy5ce4fmMPSDYZ6PYXvTx8POn11qyJPgFVb6AMoqwP14wV4jYJU6bjjHc0e1gBZFR8XV6y4fQ==",
      "path": "skiasharp.nativeassets.linux.nodependencies/2.88.0-preview.232",
      "hashPath": "skiasharp.nativeassets.linux.nodependencies.2.88.0-preview.232.nupkg.sha512"
    },
    "SkiaSharp.NativeAssets.macOS/2.88.0-preview.232": {
      "type": "package",
      "serviceable": true,
      "sha512": "sha512-TVRuvDnZMfS7bR75cS2iTvZfPqvRy3p4V1fAfa2ZerU3P4YAck+QoVlIYVQFIXLtYp4Qv6gdbzEMBlS+nxhGKg==",
      "path": "skiasharp.nativeassets.macos/2.88.0-preview.232",
      "hashPath": "skiasharp.nativeassets.macos.2.88.0-preview.232.nupkg.sha512"
    },
    "SkiaSharp.NativeAssets.Win32/2.88.0-preview.232": {
      "type": "package",
      "serviceable": true,
      "sha512": "sha512-fTyok80w6LzN0ucV53HMULvnXcrD8l9e8+VRkxbqCKI6McoWDT0+bivANAkmorIROQNeW6OoYxq4s7K08yDKUw==",
      "path": "skiasharp.nativeassets.win32/2.88.0-preview.232",
      "hashPath": "skiasharp.nativeassets.win32.2.88.0-preview.232.nupkg.sha512"
    },
    "StackExchange.Redis/2.2.88": {
      "type": "package",
      "serviceable": true,
      "sha512": "sha512-JJi1jcO3/ZiamBhlsC/TR8aZmYf+nqpGzMi0HRRCy5wJkUPmMnRp0kBA6V84uhU8b531FHSdTDaFCAyCUJomjA==",
      "path": "stackexchange.redis/2.2.88",
      "hashPath": "stackexchange.redis.2.2.88.nupkg.sha512"
    },
    "Swashbuckle.AspNetCore/6.2.3": {
      "type": "package",
      "serviceable": true,
      "sha512": "sha512-cnzQDn0Le+hInsw2SYwlOhOCPXpYi/szcvnyqZJ12v+QyrLBwAmWXBg6RIyHB18s/mLeywC+Rg2O9ndz0IUNYQ==",
      "path": "swashbuckle.aspnetcore/6.2.3",
      "hashPath": "swashbuckle.aspnetcore.6.2.3.nupkg.sha512"
    },
    "Swashbuckle.AspNetCore.Swagger/6.2.3": {
      "type": "package",
      "serviceable": true,
      "sha512": "sha512-qOF7j1sL0bWm8g/qqHVPCvkO3JlVvUIB8WfC98kSh6BT5y5DAnBNctfac7XR5EZf+eD7/WasvANncTqwZYfmWQ==",
      "path": "swashbuckle.aspnetcore.swagger/6.2.3",
      "hashPath": "swashbuckle.aspnetcore.swagger.6.2.3.nupkg.sha512"
    },
    "Swashbuckle.AspNetCore.SwaggerGen/6.2.3": {
      "type": "package",
      "serviceable": true,
      "sha512": "sha512-+Xq7WdMCCfcXlnbLJVFNgY8ITdP2TRYIlpbt6IKzDw5FwFxdi9lBfNDtcT+/wkKwX70iBBFmXldnnd02/VO72A==",
      "path": "swashbuckle.aspnetcore.swaggergen/6.2.3",
      "hashPath": "swashbuckle.aspnetcore.swaggergen.6.2.3.nupkg.sha512"
    },
    "Swashbuckle.AspNetCore.SwaggerUI/6.2.3": {
      "type": "package",
      "serviceable": true,
      "sha512": "sha512-bCRI87uKJVb4G+KURWm8LQrL64St04dEFZcF6gIM67Zc0Sr/N47EO83ybLMYOvfNdO1DCv8xwPcrz9J/VEhQ5g==",
      "path": "swashbuckle.aspnetcore.swaggerui/6.2.3",
      "hashPath": "swashbuckle.aspnetcore.swaggerui.6.2.3.nupkg.sha512"
    },
    "System.Buffers/4.5.1": {
      "type": "package",
      "serviceable": true,
      "sha512": "sha512-Rw7ijyl1qqRS0YQD/WycNst8hUUMgrMH4FCn1nNm27M4VxchZ1js3fVjQaANHO5f3sN4isvP4a+Met9Y4YomAg==",
      "path": "system.buffers/4.5.1",
      "hashPath": "system.buffers.4.5.1.nupkg.sha512"
    },
    "System.Collections.Immutable/6.0.0": {
      "type": "package",
      "serviceable": true,
      "sha512": "sha512-l4zZJ1WU2hqpQQHXz1rvC3etVZN+2DLmQMO79FhOTZHMn8tDRr+WU287sbomD0BETlmKDn0ygUgVy9k5xkkJdA==",
      "path": "system.collections.immutable/6.0.0",
      "hashPath": "system.collections.immutable.6.0.0.nupkg.sha512"
    },
    "System.Configuration.ConfigurationManager/5.0.0": {
      "type": "package",
      "serviceable": true,
      "sha512": "sha512-aM7cbfEfVNlEEOj3DsZP+2g9NRwbkyiAv2isQEzw7pnkDg9ekCU2m1cdJLM02Uq691OaCS91tooaxcEn8d0q5w==",
      "path": "system.configuration.configurationmanager/5.0.0",
      "hashPath": "system.configuration.configurationmanager.5.0.0.nupkg.sha512"
    },
    "System.Data.SqlClient/4.4.0": {
      "type": "package",
      "serviceable": true,
      "sha512": "sha512-fxb9ghn1k1Ua7FFdlvtiBOD4/PsQvD/fk2KnhS+FK7VC6OggEx6P+lP1P0+KMb5V2dqS1+FbR7HCenoqzJMNIA==",
      "path": "system.data.sqlclient/4.4.0",
      "hashPath": "system.data.sqlclient.4.4.0.nupkg.sha512"
    },
    "System.Diagnostics.DiagnosticSource/6.0.0": {
      "type": "package",
      "serviceable": true,
      "sha512": "sha512-frQDfv0rl209cKm1lnwTgFPzNigy2EKk1BS3uAvHvlBVKe5cymGyHO+Sj+NLv5VF/AhHsqPIUUwya5oV4CHMUw==",
      "path": "system.diagnostics.diagnosticsource/6.0.0",
      "hashPath": "system.diagnostics.diagnosticsource.6.0.0.nupkg.sha512"
    },
    "System.Diagnostics.PerformanceCounter/5.0.0": {
      "type": "package",
      "serviceable": true,
      "sha512": "sha512-kcQWWtGVC3MWMNXdMDWfrmIlFZZ2OdoeT6pSNVRtk9+Sa7jwdPiMlNwb0ZQcS7NRlT92pCfmjRtkSWUW3RAKwg==",
      "path": "system.diagnostics.performancecounter/5.0.0",
      "hashPath": "system.diagnostics.performancecounter.5.0.0.nupkg.sha512"
    },
    "System.Drawing.Common/5.0.0": {
      "type": "package",
      "serviceable": true,
      "sha512": "sha512-SztFwAnpfKC8+sEKXAFxCBWhKQaEd97EiOL7oZJZP56zbqnLpmxACWA8aGseaUExciuEAUuR9dY8f7HkTRAdnw==",
      "path": "system.drawing.common/5.0.0",
      "hashPath": "system.drawing.common.5.0.0.nupkg.sha512"
    },
    "System.Formats.Asn1/6.0.0": {
      "type": "package",
      "serviceable": true,
      "sha512": "sha512-T6fD00dQ3NTbPDy31m4eQUwKW84s03z0N2C8HpOklyeaDgaJPa/TexP4/SkORMSOwc7WhKifnA6Ya33AkzmafA==",
      "path": "system.formats.asn1/6.0.0",
      "hashPath": "system.formats.asn1.6.0.0.nupkg.sha512"
    },
    "System.IdentityModel.Tokens.Jwt/6.10.0": {
      "type": "package",
      "serviceable": true,
      "sha512": "sha512-C+Q5ORsFycRkRuvy/Xd0Pv5xVpmWSAvQYZAGs7VQogmkqlLhvfZXTgBIlHqC3cxkstSoLJAYx6xZB7foQ2y5eg==",
      "path": "system.identitymodel.tokens.jwt/6.10.0",
      "hashPath": "system.identitymodel.tokens.jwt.6.10.0.nupkg.sha512"
    },
    "System.IO.Pipelines/5.0.0": {
      "type": "package",
      "serviceable": true,
      "sha512": "sha512-irMYm3vhVgRsYvHTU5b2gsT2CwT/SMM6LZFzuJjpIvT5Z4CshxNsaoBC1X/LltwuR3Opp8d6jOS/60WwOb7Q2Q==",
      "path": "system.io.pipelines/5.0.0",
      "hashPath": "system.io.pipelines.5.0.0.nupkg.sha512"
    },
    "System.Memory/4.5.4": {
      "type": "package",
      "serviceable": true,
      "sha512": "sha512-1MbJTHS1lZ4bS4FmsJjnuGJOu88ZzTT2rLvrhW7Ygic+pC0NWA+3hgAen0HRdsocuQXCkUTdFn9yHJJhsijDXw==",
      "path": "system.memory/4.5.4",
      "hashPath": "system.memory.4.5.4.nupkg.sha512"
    },
    "System.Numerics.Vectors/4.5.0": {
      "type": "package",
      "serviceable": true,
      "sha512": "sha512-QQTlPTl06J/iiDbJCiepZ4H//BVraReU4O4EoRw1U02H5TLUIT7xn3GnDp9AXPSlJUDyFs4uWjWafNX6WrAojQ==",
      "path": "system.numerics.vectors/4.5.0",
      "hashPath": "system.numerics.vectors.4.5.0.nupkg.sha512"
    },
    "System.Runtime.Caching/4.7.0": {
      "type": "package",
      "serviceable": true,
      "sha512": "sha512-NdvNRjTPxYvIEhXQszT9L9vJhdQoX6AQ0AlhjTU+5NqFQVuacJTfhPVAvtGWNA2OJCqRiR/okBcZgMwI6MqcZg==",
      "path": "system.runtime.caching/4.7.0",
      "hashPath": "system.runtime.caching.4.7.0.nupkg.sha512"
    },
    "System.Runtime.CompilerServices.Unsafe/6.0.0": {
      "type": "package",
      "serviceable": true,
      "sha512": "sha512-/iUeP3tq1S0XdNNoMz5C9twLSrM/TH+qElHkXWaPvuNOt+99G75NrV0OS2EqHx5wMN7popYjpc8oTjC1y16DLg==",
      "path": "system.runtime.compilerservices.unsafe/6.0.0",
      "hashPath": "system.runtime.compilerservices.unsafe.6.0.0.nupkg.sha512"
    },
    "System.Security.AccessControl/5.0.0": {
      "type": "package",
      "serviceable": true,
      "sha512": "sha512-dagJ1mHZO3Ani8GH0PHpPEe/oYO+rVdbQjvjJkBRNQkX4t0r1iaeGn8+/ybkSLEan3/slM0t59SVdHzuHf2jmw==",
      "path": "system.security.accesscontrol/5.0.0",
      "hashPath": "system.security.accesscontrol.5.0.0.nupkg.sha512"
    },
    "System.Security.Cryptography.Cng/4.5.0": {
      "type": "package",
      "serviceable": true,
      "sha512": "sha512-WG3r7EyjUe9CMPFSs6bty5doUqT+q9pbI80hlNzo2SkPkZ4VTuZkGWjpp77JB8+uaL4DFPRdBsAY+DX3dBK92A==",
      "path": "system.security.cryptography.cng/4.5.0",
      "hashPath": "system.security.cryptography.cng.4.5.0.nupkg.sha512"
    },
    "System.Security.Cryptography.Pkcs/6.0.0": {
      "type": "package",
      "serviceable": true,
      "sha512": "sha512-elM3x+xSRhzQysiqo85SbidJJ2YbZlnvmh+53TuSZHsD7dNuuEWser+9EFtY+rYupBwkq2avc6ZCO3/6qACgmg==",
      "path": "system.security.cryptography.pkcs/6.0.0",
      "hashPath": "system.security.cryptography.pkcs.6.0.0.nupkg.sha512"
    },
    "System.Security.Cryptography.ProtectedData/5.0.0": {
      "type": "package",
      "serviceable": true,
      "sha512": "sha512-HGxMSAFAPLNoxBvSfW08vHde0F9uh7BjASwu6JF9JnXuEPhCY3YUqURn0+bQV/4UWeaqymmrHWV+Aw9riQCtCA==",
      "path": "system.security.cryptography.protecteddata/5.0.0",
      "hashPath": "system.security.cryptography.protecteddata.5.0.0.nupkg.sha512"
    },
    "System.Security.Permissions/5.0.0": {
      "type": "package",
      "serviceable": true,
      "sha512": "sha512-uE8juAhEkp7KDBCdjDIE3H9R1HJuEHqeqX8nLX9gmYKWwsqk3T5qZlPx8qle5DPKimC/Fy3AFTdV7HamgCh9qQ==",
      "path": "system.security.permissions/5.0.0",
      "hashPath": "system.security.permissions.5.0.0.nupkg.sha512"
    },
    "System.Security.Principal.Windows/5.0.0": {
      "type": "package",
      "serviceable": true,
      "sha512": "sha512-t0MGLukB5WAVU9bO3MGzvlGnyJPgUlcwerXn1kzBRjwLKixT96XV0Uza41W49gVd8zEMFu9vQEFlv0IOrytICA==",
      "path": "system.security.principal.windows/5.0.0",
      "hashPath": "system.security.principal.windows.5.0.0.nupkg.sha512"
    },
    "System.Text.Encoding.CodePages/4.7.0": {
      "type": "package",
      "serviceable": true,
      "sha512": "sha512-aeu4FlaUTemuT1qOd1MyU4T516QR4Fy+9yDbwWMPHOHy7U8FD6SgTzdZFO7gHcfAPHtECqInbwklVvUK4RHcNg==",
      "path": "system.text.encoding.codepages/4.7.0",
      "hashPath": "system.text.encoding.codepages.4.7.0.nupkg.sha512"
    },
    "System.Text.Encodings.Web/4.5.0": {
      "type": "package",
      "serviceable": true,
      "sha512": "sha512-Xg4G4Indi4dqP1iuAiMSwpiWS54ZghzR644OtsRCm/m/lBMG8dUBhLVN7hLm8NNrNTR+iGbshCPTwrvxZPlm4g==",
      "path": "system.text.encodings.web/4.5.0",
      "hashPath": "system.text.encodings.web.4.5.0.nupkg.sha512"
    },
    "System.Text.Json/4.6.0": {
      "type": "package",
      "serviceable": true,
      "sha512": "sha512-4F8Xe+JIkVoDJ8hDAZ7HqLkjctN/6WItJIzQaifBwClC7wmoLSda/Sv2i6i1kycqDb3hWF4JCVbpAweyOKHEUA==",
      "path": "system.text.json/4.6.0",
      "hashPath": "system.text.json.4.6.0.nupkg.sha512"
    },
    "System.Threading.Channels/4.7.1": {
      "type": "package",
      "serviceable": true,
      "sha512": "sha512-6akRtHK/wab3246t4p5v3HQrtQk8LboOt5T4dtpNgsp3zvDeM4/Gx8V12t0h+c/W9/enUrilk8n6EQqdQorZAA==",
      "path": "system.threading.channels/4.7.1",
      "hashPath": "system.threading.channels.4.7.1.nupkg.sha512"
    },
    "System.Windows.Extensions/5.0.0": {
      "type": "package",
      "serviceable": true,
      "sha512": "sha512-c1ho9WU9ZxMZawML+ssPKZfdnrg/OjR3pe0m9v8230z3acqphwvPJqzAkH54xRYm5ntZHGG1EPP3sux9H3qSPg==",
      "path": "system.windows.extensions/5.0.0",
      "hashPath": "system.windows.extensions.5.0.0.nupkg.sha512"
    },
    "Novanet.Core/1.0.0": {
      "type": "project",
      "serviceable": false,
      "sha512": ""
    },
    "Novanet.EventBus/1.0.0": {
      "type": "project",
      "serviceable": false,
      "sha512": ""
    },
    "NovanetCore.Business/1.0.0": {
      "type": "project",
      "serviceable": false,
      "sha512": ""
    },
    "NovanetCore.ValueObject/1.0.0": {
      "type": "project",
      "serviceable": false,
      "sha512": ""
    }
  }
}