<svg width="16" height="13" viewBox="0 0 16 13" fill="none" xmlns="http://www.w3.org/2000/svg">
<path d="M8.08967 0.40625L0 5.59927V8.22371L8.08967 3.03216L16 8.10756V5.48311L8.08967 0.40625Z" fill="#828282"/>
<path d="M8.08967 4.77637L0 9.96939V12.5938L8.08967 7.40228L16 12.4777V9.85323L8.08967 4.77637Z" fill="#828282"/>
</svg>
